# Created by FreeCAD <http://www.freecadweb.org>
v 0.000000 25.000000 15.000000
v 0.000000 25.000000 25.000000
v 0.000000 40.000000 25.000000
v 0.000000 40.000000 15.000000
v 0.000000 15.000000 25.000000
v 0.000000 15.000000 40.000000
v 0.000000 25.000000 40.000000
v 0.000000 15.000000 15.000000
v 0.000000 0.000000 15.000000
v 0.000000 0.000000 25.000000
v 0.000000 15.000000 0.000000
v 0.000000 25.000000 0.000000
v 15.000000 0.000000 15.000000
v 15.000000 0.000000 25.000000
v 25.000000 0.000000 25.000000
v 25.000000 0.000000 40.000000
v 15.000000 0.000000 40.000000
v 25.000000 0.000000 15.000000
v 40.000000 0.000000 15.000000
v 40.000000 0.000000 25.000000
v 25.000000 0.000000 0.000000
v 15.000000 0.000000 0.000000
v 40.000000 25.000000 25.000000
v 40.000000 25.000000 15.000000
v 40.000000 40.000000 15.000000
v 40.000000 40.000000 25.000000
v 40.000000 15.000000 15.000000
v 40.000000 15.000000 0.000000
v 40.000000 25.000000 0.000000
v 40.000000 15.000000 25.000000
v 40.000000 15.000000 40.000000
v 40.000000 25.000000 40.000000
v 15.000000 15.000000 0.000000
v 25.000000 15.000000 0.000000
v 25.000000 25.000000 0.000000
v 15.000000 25.000000 0.000000
v 15.000000 40.000000 0.000000
v 25.000000 40.000000 0.000000
v 25.000000 15.000000 15.000000
v 25.000000 15.000000 25.000000
v 25.000000 15.000000 40.000000
v 25.000000 25.000000 15.000000
v 25.000000 40.000000 15.000000
v 15.000000 15.000000 15.000000
v 15.000000 15.000000 40.000000
v 15.000000 15.000000 25.000000
v 15.000000 40.000000 15.000000
v 15.000000 25.000000 15.000000
v 15.000000 25.000000 40.000000
v 25.000000 25.000000 40.000000
v 25.000000 40.000000 40.000000
v 15.000000 40.000000 40.000000
v 25.000000 40.000000 25.000000
v 25.000000 25.000000 25.000000
v 15.000000 25.000000 25.000000
v 15.000000 40.000000 25.000000
vn -1.000000 0.000000 0.000000
vn -1.000000 0.000000 0.000000
vn -1.000000 0.000000 0.000000
vn -1.000000 0.000000 0.000000
vn -1.000000 0.000000 0.000000
vn -1.000000 0.000000 0.000000
vn -1.000000 0.000000 0.000000
vn -1.000000 0.000000 0.000000
vn -1.000000 0.000000 0.000000
vn -1.000000 0.000000 0.000000
vn 0.000000 -1.000000 0.000000
vn 0.000000 -1.000000 0.000000
vn 0.000000 -1.000000 0.000000
vn 0.000000 -1.000000 0.000000
vn 0.000000 -1.000000 0.000000
vn 0.000000 -1.000000 0.000000
vn 0.000000 -1.000000 0.000000
vn 0.000000 -1.000000 0.000000
vn 0.000000 -1.000000 0.000000
vn 0.000000 -1.000000 0.000000
vn 1.000000 0.000000 0.000000
vn 1.000000 -0.000000 0.000000
vn 1.000000 0.000000 0.000000
vn 1.000000 -0.000000 0.000000
vn 1.000000 0.000000 0.000000
vn 1.000000 -0.000000 0.000000
vn 1.000000 0.000000 0.000000
vn 1.000000 -0.000000 0.000000
vn 1.000000 -0.000000 0.000000
vn 1.000000 0.000000 0.000000
vn 0.000000 0.000000 -1.000000
vn 0.000000 0.000000 -1.000000
vn 0.000000 0.000000 -1.000000
vn 0.000000 0.000000 -1.000000
vn 0.000000 0.000000 -1.000000
vn 0.000000 0.000000 -1.000000
vn 0.000000 0.000000 -1.000000
vn 0.000000 0.000000 -1.000000
vn 0.000000 0.000000 -1.000000
vn 0.000000 0.000000 -1.000000
vn 1.000000 -0.000000 0.000000
vn 1.000000 0.000000 0.000000
vn 1.000000 -0.000000 0.000000
vn 1.000000 0.000000 0.000000
vn 1.000000 -0.000000 0.000000
vn 1.000000 0.000000 0.000000
vn -1.000000 0.000000 0.000000
vn -1.000000 0.000000 0.000000
vn -1.000000 0.000000 0.000000
vn -1.000000 0.000000 0.000000
vn -1.000000 0.000000 0.000000
vn -1.000000 0.000000 0.000000
vn 0.000000 0.000000 1.000000
vn 0.000000 0.000000 1.000000
vn 0.000000 0.000000 1.000000
vn 0.000000 0.000000 1.000000
vn 0.000000 0.000000 1.000000
vn 0.000000 0.000000 1.000000
vn 0.000000 0.000000 1.000000
vn 0.000000 0.000000 1.000000
vn 0.000000 0.000000 1.000000
vn 0.000000 0.000000 1.000000
vn 1.000000 -0.000000 0.000000
vn 1.000000 0.000000 0.000000
vn -1.000000 0.000000 0.000000
vn -1.000000 0.000000 0.000000
vn 0.000000 1.000000 0.000000
vn 0.000000 1.000000 0.000000
vn 0.000000 1.000000 0.000000
vn 0.000000 1.000000 0.000000
vn 0.000000 1.000000 0.000000
vn 0.000000 1.000000 0.000000
vn 0.000000 1.000000 0.000000
vn 0.000000 1.000000 0.000000
vn 0.000000 1.000000 0.000000
vn 0.000000 1.000000 0.000000
vn 0.000000 -1.000000 0.000000
vn 0.000000 -1.000000 0.000000
vn 0.000000 -1.000000 0.000000
vn 0.000000 -1.000000 0.000000
vn 0.000000 -1.000000 0.000000
vn 0.000000 -1.000000 0.000000
vn 0.000000 -1.000000 0.000000
vn 0.000000 -1.000000 0.000000
vn 0.000000 1.000000 0.000000
vn 0.000000 1.000000 0.000000
vn 0.000000 1.000000 0.000000
vn 0.000000 1.000000 0.000000
vn 0.000000 1.000000 0.000000
vn 0.000000 1.000000 0.000000
vn 0.000000 1.000000 0.000000
vn 0.000000 1.000000 0.000000
vn 0.000000 0.000000 1.000000
vn 0.000000 0.000000 1.000000
vn 0.000000 0.000000 1.000000
vn 0.000000 0.000000 1.000000
vn 0.000000 0.000000 1.000000
vn 0.000000 0.000000 1.000000
vn 0.000000 0.000000 1.000000
vn 0.000000 0.000000 1.000000
vn 0.000000 0.000000 -1.000000
vn 0.000000 0.000000 -1.000000
vn 0.000000 0.000000 -1.000000
vn 0.000000 0.000000 -1.000000
vn 0.000000 0.000000 -1.000000
vn 0.000000 0.000000 -1.000000
vn 0.000000 0.000000 -1.000000
vn 0.000000 0.000000 -1.000000
f 1//1 2//1 3//1
f 1//2 3//2 4//2
f 5//3 6//3 7//3
f 5//4 7//4 2//4
f 8//5 5//5 2//5
f 8//6 2//6 1//6
f 9//7 10//7 5//7
f 9//8 5//8 8//8
f 11//9 1//9 12//9
f 11//10 8//10 1//10
f 13//11 14//11 10//11
f 13//12 10//12 9//12
f 15//13 16//13 17//13
f 15//14 17//14 14//14
f 18//15 15//15 14//15
f 18//16 14//16 13//16
f 19//17 20//17 15//17
f 19//18 15//18 18//18
f 21//19 13//19 22//19
f 21//20 18//20 13//20
f 23//21 24//21 25//21
f 23//22 25//22 26//22
f 27//23 28//23 29//23
f 27//24 29//24 24//24
f 30//25 27//25 24//25
f 30//26 24//26 23//26
f 20//27 19//27 27//27
f 20//28 27//28 30//28
f 31//29 23//29 32//29
f 31//30 30//30 23//30
f 33//31 34//31 21//31
f 33//32 21//32 22//32
f 35//33 29//33 28//33
f 35//34 28//34 34//34
f 36//35 35//35 34//35
f 36//36 34//36 33//36
f 12//37 33//37 11//37
f 12//38 36//38 33//38
f 37//39 38//39 35//39
f 37//40 35//40 36//40
f 18//41 34//41 39//41
f 18//42 21//42 34//42
f 16//43 40//43 41//43
f 16//44 15//44 40//44
f 42//45 38//45 43//45
f 42//46 35//46 38//46
f 22//47 44//47 33//47
f 22//48 13//48 44//48
f 14//49 45//49 46//49
f 14//50 17//50 45//50
f 36//51 47//51 37//51
f 36//52 48//52 47//52
f 49//53 7//53 6//53
f 49//54 6//54 45//54
f 41//55 45//55 17//55
f 41//56 17//56 16//56
f 50//57 49//57 45//57
f 50//58 45//58 41//58
f 32//59 41//59 31//59
f 32//60 50//60 41//60
f 51//61 52//61 49//61
f 51//62 49//62 50//62
f 50//63 53//63 51//63
f 50//64 54//64 53//64
f 55//65 52//65 56//65
f 55//66 49//66 52//66
f 43//67 38//67 37//67
f 43//68 37//68 47//68
f 56//69 47//69 4//69
f 56//70 4//70 3//70
f 53//71 43//71 47//71
f 53//72 47//72 56//72
f 51//73 56//73 52//73
f 51//74 53//74 56//74
f 26//75 25//75 43//75
f 26//76 43//76 53//76
f 46//77 45//77 6//77
f 46//78 6//78 5//78
f 30//79 31//79 41//79
f 30//80 41//80 40//80
f 33//81 44//81 8//81
f 33//82 8//82 11//82
f 28//83 27//83 39//83
f 28//84 39//84 34//84
f 32//85 23//85 54//85
f 32//86 54//86 50//86
f 48//87 36//87 12//87
f 48//88 12//88 1//88
f 24//89 29//89 35//89
f 24//90 35//90 42//90
f 49//91 55//91 2//91
f 49//92 2//92 7//92
f 46//93 5//93 10//93
f 46//94 10//94 14//94
f 30//95 40//95 15//95
f 30//96 15//96 20//96
f 26//97 53//97 54//97
f 26//98 54//98 23//98
f 56//99 3//99 2//99
f 56//100 2//100 55//100
f 4//101 47//101 48//101
f 4//102 48//102 1//102
f 8//103 44//103 13//103
f 8//104 13//104 9//104
f 39//105 27//105 19//105
f 39//106 19//106 18//106
f 43//107 25//107 24//107
f 43//108 24//108 42//108
