# Created by FreeCAD <http://www.freecadweb.org>
v 30.000000 0.000000 20.000000
v 30.000000 20.000000 40.000000
v 30.000000 20.000000 20.000000
v 30.000000 0.000000 40.000000
v 10.000000 0.000000 20.000000
v 10.000000 0.000000 40.000000
v 0.000000 0.000000 40.000000
v 0.000000 0.000000 0.000000
v 40.000000 0.000000 40.000000
v 40.000000 0.000000 0.000000
v 10.000000 20.000000 40.000000
v 0.000000 40.000000 40.000000
v 40.000000 40.000000 40.000000
v 0.000000 40.000000 0.000000
v 40.000000 40.000000 0.000000
v 10.000000 20.000000 20.000000
vn -1.000000 0.000000 0.000000
vn -1.000000 0.000000 0.000000
vn 0.000000 -1.000000 0.000000
vn 0.000000 -1.000000 0.000000
vn 0.000000 -1.000000 0.000000
vn -0.000000 -1.000000 0.000000
vn 0.000000 -1.000000 0.000000
vn 0.000000 -1.000000 0.000000
vn 0.000000 0.000000 1.000000
vn 0.000000 0.000000 1.000000
vn 0.000000 0.000000 1.000000
vn 0.000000 0.000000 1.000000
vn 0.000000 0.000000 1.000000
vn 0.000000 0.000000 1.000000
vn -1.000000 0.000000 0.000000
vn -1.000000 0.000000 0.000000
vn 1.000000 -0.000000 0.000000
vn 1.000000 0.000000 0.000000
vn 0.000000 1.000000 0.000000
vn 0.000000 1.000000 0.000000
vn 0.000000 0.000000 -1.000000
vn 0.000000 0.000000 -1.000000
vn 1.000000 -0.000000 0.000000
vn 1.000000 0.000000 0.000000
vn 0.000000 0.000000 1.000000
vn 0.000000 0.000000 1.000000
vn 0.000000 -1.000000 0.000000
vn 0.000000 -1.000000 0.000000
f 1//1 2//1 3//1
f 1//2 4//2 2//2
f 5//3 6//3 7//3
f 8//4 5//4 7//4
f 1//5 9//5 4//5
f 1//6 5//6 8//6
f 10//7 9//7 1//7
f 10//8 1//8 8//8
f 11//9 7//9 6//9
f 12//10 7//10 11//10
f 2//11 4//11 9//11
f 2//12 12//12 11//12
f 13//13 2//13 9//13
f 13//14 12//14 2//14
f 8//15 12//15 14//15
f 8//16 7//16 12//16
f 9//17 15//17 13//17
f 9//18 10//18 15//18
f 13//19 15//19 14//19
f 13//20 14//20 12//20
f 14//21 15//21 10//21
f 14//22 10//22 8//22
f 6//23 16//23 11//23
f 6//24 5//24 16//24
f 3//25 16//25 5//25
f 3//26 5//26 1//26
f 3//27 2//27 11//27
f 3//28 11//28 16//28
