# Created by FreeCAD <http://www.freecadweb.org>
v 40.000000 40.000000 40.000000
v 40.000000 30.000000 10.000000
v 40.000000 40.000000 0.000000
v 40.000000 0.000000 0.000000
v 40.000000 0.000000 10.000000
v 40.000000 30.000000 40.000000
v 25.000000 10.000000 0.000000
v 25.000000 0.000000 0.000000
v 0.000000 0.000000 0.000000
v 15.000000 10.000000 0.000000
v 15.000000 0.000000 0.000000
v 0.000000 40.000000 0.000000
v 30.000000 40.000000 40.000000
v 30.000000 30.000000 40.000000
v 0.000000 30.000000 10.000000
v 0.000000 40.000000 40.000000
v 0.000000 30.000000 40.000000
v 0.000000 0.000000 10.000000
v 10.000000 40.000000 40.000000
v 10.000000 30.000000 40.000000
v 10.000000 40.000000 10.000000
v 10.000000 30.000000 10.000000
v 30.000000 40.000000 10.000000
v 30.000000 30.000000 10.000000
v 15.000000 10.000000 10.000000
v 15.000000 0.000000 10.000000
v 25.000000 10.000000 10.000000
v 25.000000 0.000000 10.000000
vn 1.000000 0.000000 0.000000
vn 1.000000 0.000000 0.000000
vn 1.000000 -0.000000 0.000000
vn 1.000000 -0.000000 0.000000
vn 0.000000 0.000000 -1.000000
vn 0.000000 0.000000 -1.000000
vn 0.000000 -0.000000 -1.000000
vn 0.000000 0.000000 -1.000000
vn 0.000000 0.000000 -1.000000
vn 0.000000 0.000000 -1.000000
vn 0.000000 0.000000 1.000000
vn 0.000000 0.000000 1.000000
vn -1.000000 0.000000 0.000000
vn -1.000000 0.000000 0.000000
vn -1.000000 0.000000 0.000000
vn -1.000000 0.000000 0.000000
vn 0.000000 0.000000 1.000000
vn 0.000000 0.000000 1.000000
vn 1.000000 -0.000000 0.000000
vn 1.000000 0.000000 0.000000
vn 0.000000 1.000000 0.000000
vn 0.000000 1.000000 0.000000
vn 0.000000 1.000000 0.000000
vn 0.000000 1.000000 0.000000
vn 0.000000 1.000000 0.000000
vn 0.000000 1.000000 0.000000
vn 0.000000 -1.000000 0.000000
vn 0.000000 -1.000000 0.000000
vn 0.000000 -1.000000 0.000000
vn 0.000000 -1.000000 0.000000
vn -1.000000 0.000000 0.000000
vn -1.000000 0.000000 0.000000
vn 0.000000 0.000000 1.000000
vn 0.000000 0.000000 1.000000
vn 0.000000 0.000000 1.000000
vn 0.000000 0.000000 1.000000
vn 0.000000 0.000000 1.000000
vn 0.000000 0.000000 1.000000
vn 0.000000 0.000000 1.000000
vn 0.000000 0.000000 1.000000
vn 0.000000 0.000000 1.000000
vn 0.000000 0.000000 1.000000
vn 0.000000 -1.000000 0.000000
vn 0.000000 -1.000000 0.000000
vn 0.000000 -1.000000 0.000000
vn 0.000000 -1.000000 0.000000
vn 1.000000 -0.000000 0.000000
vn 1.000000 0.000000 0.000000
vn -1.000000 0.000000 0.000000
vn -1.000000 0.000000 0.000000
vn 0.000000 -1.000000 0.000000
vn 0.000000 -1.000000 0.000000
f 1//1 2//1 3//1
f 4//2 3//2 2//2
f 5//3 4//3 2//3
f 6//4 2//4 1//4
f 7//5 4//5 8//5
f 9//6 10//6 11//6
f 3//7 4//7 7//7
f 12//8 7//8 10//8
f 12//9 3//9 7//9
f 12//10 10//10 9//10
f 1//11 13//11 14//11
f 1//12 14//12 6//12
f 15//13 16//13 12//13
f 15//14 17//14 16//14
f 9//15 18//15 15//15
f 9//16 15//16 12//16
f 19//17 16//17 17//17
f 19//18 17//18 20//18
f 20//19 21//19 19//19
f 20//20 22//20 21//20
f 16//21 21//21 12//21
f 3//22 21//22 23//22
f 3//23 12//23 21//23
f 19//24 21//24 16//24
f 1//25 23//25 13//25
f 1//26 3//26 23//26
f 22//27 20//27 17//27
f 22//28 17//28 15//28
f 2//29 6//29 14//29
f 2//30 14//30 24//30
f 24//31 13//31 23//31
f 24//32 14//32 13//32
f 25//33 18//33 26//33
f 15//34 18//34 25//34
f 22//35 15//35 25//35
f 5//36 27//36 28//36
f 24//37 25//37 27//37
f 24//38 22//38 25//38
f 23//39 21//39 22//39
f 23//40 22//40 24//40
f 2//41 27//41 5//41
f 2//42 24//42 27//42
f 11//43 26//43 18//43
f 11//44 18//44 9//44
f 4//45 5//45 28//45
f 4//46 28//46 8//46
f 26//47 10//47 25//47
f 26//48 11//48 10//48
f 8//49 27//49 7//49
f 8//50 28//50 27//50
f 7//51 27//51 25//51
f 7//52 25//52 10//52
