# Created by FreeCAD <http://www.freecadweb.org>
v 0.000000 40.000000 0.000000
v 40.000000 40.000000 0.000000
v 40.000000 0.000000 0.000000
v 0.000000 0.000000 0.000000
v 20.000000 40.000000 40.000000
v 0.000000 40.000000 40.000000
v 40.000000 40.000000 20.000000
v 20.000000 20.000000 40.000000
v 40.000000 20.000000 20.000000
v 20.000000 20.000000 20.000000
v 20.000000 0.000000 20.000000
v 40.000000 0.000000 20.000000
v 20.000000 0.000000 40.000000
v 0.000000 0.000000 40.000000
vn 0.000000 0.000000 -1.000000
vn 0.000000 0.000000 -1.000000
vn 0.000000 1.000000 0.000000
vn 0.000000 1.000000 0.000000
vn 0.000000 1.000000 0.000000
vn 0.707107 0.000000 0.707107
vn 0.707107 0.000000 0.707107
vn 0.000000 -1.000000 0.000000
vn 0.000000 0.000000 1.000000
vn 0.000000 0.000000 1.000000
vn 1.000000 -0.000000 0.000000
vn 1.000000 0.000000 0.000000
vn -1.000000 0.000000 0.000000
vn -1.000000 0.000000 0.000000
vn 0.000000 0.000000 1.000000
vn 0.000000 0.000000 1.000000
vn 0.000000 0.000000 1.000000
vn 0.000000 -1.000000 0.000000
vn -0.000000 -1.000000 0.000000
vn 0.000000 -1.000000 0.000000
vn 0.000000 -1.000000 0.000000
vn 1.000000 -0.000000 0.000000
vn 1.000000 0.000000 0.000000
vn 1.000000 -0.000000 0.000000
f 1//1 2//1 3//1
f 1//2 3//2 4//2
f 5//3 1//3 6//3
f 7//4 2//4 1//4
f 7//5 1//5 5//5
f 7//6 5//6 8//6
f 7//7 8//7 9//7
f 9//8 8//8 10//8
f 9//9 10//9 11//9
f 9//10 11//10 12//10
f 13//11 10//11 8//11
f 13//12 11//12 10//12
f 4//13 6//13 1//13
f 4//14 14//14 6//14
f 8//15 14//15 13//15
f 6//16 14//16 8//16
f 5//17 6//17 8//17
f 11//18 13//18 14//18
f 11//19 14//19 4//19
f 3//20 12//20 11//20
f 3//21 11//21 4//21
f 9//22 2//22 7//22
f 9//23 3//23 2//23
f 12//24 3//24 9//24
