<?xml version='1.0' encoding='UTF-8' standalone='no'?>
    <svg xmlns='http://www.w3.org/2000/svg' xmlns:xlink='http://www.w3.org/1999/xlink' version='1.1'
    width='210.00mm' height='297.00mm' viewBox='0 0 210.00 297.00'>
<style type="text/css">
    path {
        fill: none;
        stroke-linecap: butt;
        stroke-linejoin: bevel;
        stroke-dasharray: none;
    }
    path.outer {
        stroke: #000000;
        stroke-dasharray: none;
        stroke-dashoffset: 0;
        stroke-width: 0.3;
        stroke-opacity: 1.0;
    }
    path.convex {
        stroke: #000000;
        stroke-dasharray: 0.50,1.00;
        stroke-dashoffset:0;
        stroke-width:0.2;
        stroke-opacity: 1.0
    }
    path.concave {
        stroke: #000000;
        stroke-dasharray: 1.00,0.50,0.20,0.50;
        stroke-dashoffset: 0;
        stroke-width: 0.2;
        stroke-opacity: 1.0
    }
    path.freestyle {
        stroke: #000000;
        stroke-dasharray: none;
        stroke-dashoffset: 0;
        stroke-width: 0.2;
        stroke-opacity: 1.0
    }
    path.outer_background {
        stroke: #ffffff;
        stroke-opacity: 1.0;
        stroke-width: 0.5
    }
    path.inner_background {
        stroke: #ffffff;
        stroke-opacity: 1.0;
        stroke-width: 0.2
    }
    path.sticker {
        fill: #e5e5e5;
        stroke: none;
        fill-opacity: 1.0;
    }
    path.arrow {
        fill: #000;
    }
    text {
        font-style: normal;
        fill: #000000;
        fill-opacity: 1.0;
        stroke: none;
    }
    text, tspan {
        text-anchor:middle;
    }
    </style>
<g>
<path class='sticker' d=' M 43.599646 283.924715 L 38.988370 289.285325 L 16.170218 290.999991 L 12.916914 286.230364 Z
M 100.353817 217.947972 L 95.787684 221.481194 L 72.656038 212.009472 L 71.879241 206.288469 Z
M 104.965108 279.313416 L 100.353832 284.674027 L 77.535692 286.388694 L 74.282388 281.619065 Z
M 74.787888 162.871522 L 75.260538 155.816254 L 92.486250 140.753669 L 97.950677 142.617372 Z
M 69.476086 130.957869 L 65.942856 126.391736 L 74.613797 105.215740 L 81.135589 102.483300 Z
M 157.107967 151.971218 L 162.310231 154.475194 L 166.330534 207.976070 L 161.719250 213.336681 Z
M 56.635375 252.089151 L 59.139344 246.886895 L 68.723443 246.166703 L 71.976739 250.936338 Z
M 41.294004 253.241983 L 43.797973 248.039723 L 53.382064 247.319524 L 56.635375 252.089151 Z
M 12.916914 286.230364 L 7.714659 283.726394 L 6.000000 260.908232 L 10.611277 255.547621 Z
M 104.454587 45.534146 L 109.020720 42.000917 L 160.626936 63.132134 L 161.403748 68.853152 Z
M 64.320507 62.349212 L 59.754374 65.882456 L 36.622730 56.410727 L 35.845929 50.689724 Z
M 166.330534 274.702142 L 161.719250 280.062752 L 110.325727 283.924693 L 104.965108 279.313416 Z
M 70.823918 235.594959 L 77.891874 233.086147 L 101.882662 242.909678 L 102.659459 248.630685 Z
M 138.084742 125.802306 L 141.617971 130.368439 L 132.146257 153.500062 L 126.425247 154.276875 Z '/>
<path class='convex' d=' M 71.879241 206.288469 L 100.353817 217.947972
M 102.659459 248.630685 L 104.965108 279.313416
M 10.611277 255.547621 L 12.916914 286.230364
M 100.353817 217.947972 L 126.425247 154.276875
M 104.965108 279.313416 L 166.330534 274.702142
M 71.976739 250.936338 L 56.635375 252.089151
M 138.084742 125.802306 L 81.135589 102.483300
M 81.135589 102.483300 L 104.454587 45.534146
M 71.976739 250.936338 L 102.659459 248.630685
M 100.353817 217.947972 L 161.719250 213.336681
M 35.845929 50.689724 L 64.320507 62.349212
M 84.914948 174.452920 L 97.950677 142.617372
M 81.135589 102.483300 L 69.476086 130.957869
M 161.719250 213.336681 L 157.107967 151.971218
M 161.403748 68.853152 L 104.454587 45.534146
M 126.425247 154.276875 L 138.084742 125.802306
M 71.976739 250.936338 L 74.282388 281.619065
M 12.916914 286.230364 L 43.599646 283.924715
M 126.425247 154.276875 L 97.950677 142.617372
M 74.282388 281.619065 L 104.965108 279.313416 '/>
<path class='concave' d=' M 102.659459 248.630685 L 70.823918 235.594959
M 56.635375 252.089151 L 41.294004 253.241983
M 97.950677 142.617372 L 74.787888 162.871522
M 41.294004 253.241983 L 43.599646 283.924715 '/>
<path class='outer' d=' M 95.787684 221.481194 L 72.656038 212.009472 L 71.879241 206.288469 L 84.914948 174.452920 L 74.787888 162.871522 L 75.260538 155.816254 L 92.486250 140.753669 L 97.950677 142.617372 L 69.476086 130.957869 L 65.942856 126.391736 L 74.613797 105.215740 L 81.135589 102.483300 L 52.661012 90.823797 L 64.320507 62.349212 L 59.754374 65.882456 L 36.622730 56.410727 L 35.845929 50.689724 L 47.505434 22.215140 L 104.454587 45.534146 L 109.020720 42.000917 L 160.626936 63.132134 L 161.403748 68.853152 L 138.084742 125.802306 L 141.617971 130.368439 L 132.146257 153.500062 L 126.425247 154.276875 L 157.107967 151.971218 L 162.310231 154.475194 L 166.330534 207.976070 L 161.719250 213.336681 L 166.330534 274.702142 L 161.719250 280.062752 L 110.325727 283.924693 L 104.965108 279.313416 L 100.353832 284.674027 L 77.535692 286.388694 L 74.282388 281.619065 L 43.599646 283.924715 L 38.988370 289.285325 L 16.170218 290.999991 L 12.916914 286.230364 L 7.714659 283.726394 L 6.000000 260.908232 L 10.611277 255.547621 L 41.294004 253.241983 L 43.797973 248.039723 L 53.382064 247.319524 L 56.635375 252.089151 L 59.139344 246.886895 L 68.723443 246.166703 L 71.976739 250.936338 L 70.823918 235.594959 L 77.891874 233.086147 L 101.882662 242.909678 L 102.659459 248.630685 L 100.353817 217.947972 Z '/>
<g><path transform='matrix(-1.894669 4.627119 -4.627119 -1.894669 58.490763 76.586497)' class='arrow' d='M 0 0 L 1 1 L 0 0.25 L -1 1 Z'/><text transform='translate(54.326358 76.881302)' style='font-size:5.00'><tspan>1</tspan></text></g>
<text transform='matrix(-0.997189 0.074934 -0.074934 -0.997189 28.325719 285.975009)' style='font-size:4.50'><tspan>1</tspan></text>
<g><path transform='matrix(3.291298 3.763955 -3.763955 3.291298 79.851414 168.662217)' class='arrow' d='M 0 0 L 1 1 L 0 0.25 L -1 1 Z'/><text transform='translate(76.463851 173.624386)' style='font-size:5.00'><tspan>2</tspan></text></g>
<text transform='matrix(0.997189 -0.074934 0.074934 0.997189 48.897247 251.768094)' style='font-size:4.50'><tspan>2</tspan></text>
<g><path transform='matrix(4.627119 1.894670 -1.894670 4.627119 83.713385 136.787635)' class='arrow' d='M 0 0 L 1 1 L 0 0.25 L -1 1 Z'/><text transform='translate(82.008186 142.952052)' style='font-size:5.00'><tspan>3</tspan></text></g>
<text transform='matrix(-0.074933 -0.997189 0.997189 -0.074933 10.866626 270.956433)' style='font-size:4.50'><tspan>3</tspan></text>
<g><path transform='matrix(-1.894668 4.627120 -4.627120 -1.894668 78.397091 190.370691)' class='arrow' d='M 0 0 L 1 1 L 0 0.25 L -1 1 Z'/><text transform='translate(74.232685 190.665488)' style='font-size:5.00'><tspan>4</tspan></text></g>
<text transform='matrix(0.925424 0.378934 -0.378934 0.925424 87.082724 241.279938)' style='font-size:4.50'><tspan>4</tspan></text>
</g>
</svg>
