<?xml version='1.0' encoding='UTF-8' standalone='no'?>
    <svg xmlns='http://www.w3.org/2000/svg' xmlns:xlink='http://www.w3.org/1999/xlink' version='1.1'
    width='210.00mm' height='297.00mm' viewBox='0 0 210.00 297.00'>
<style type="text/css">
    path {
        fill: none;
        stroke-linecap: butt;
        stroke-linejoin: bevel;
        stroke-dasharray: none;
    }
    path.outer {
        stroke: #000000;
        stroke-dasharray: none;
        stroke-dashoffset: 0;
        stroke-width: 0.3;
        stroke-opacity: 1.0;
    }
    path.convex {
        stroke: #000000;
        stroke-dasharray: 0.50,1.00;
        stroke-dashoffset:0;
        stroke-width:0.2;
        stroke-opacity: 1.0
    }
    path.concave {
        stroke: #000000;
        stroke-dasharray: 1.00,0.50,0.20,0.50;
        stroke-dashoffset: 0;
        stroke-width: 0.2;
        stroke-opacity: 1.0
    }
    path.freestyle {
        stroke: #000000;
        stroke-dasharray: none;
        stroke-dashoffset: 0;
        stroke-width: 0.2;
        stroke-opacity: 1.0
    }
    path.outer_background {
        stroke: #ffffff;
        stroke-opacity: 1.0;
        stroke-width: 0.5
    }
    path.inner_background {
        stroke: #ffffff;
        stroke-opacity: 1.0;
        stroke-width: 0.2
    }
    path.sticker {
        fill: #e5e5e5;
        stroke: none;
        fill-opacity: 1.0;
    }
    path.arrow {
        fill: #000;
    }
    text {
        font-style: normal;
        fill: #000000;
        fill-opacity: 1.0;
        stroke: none;
    }
    text, tspan {
        text-anchor:middle;
    }
    </style>
<g>
<path class='sticker' d=' M 68.045227 120.772680 L 65.586058 115.549078 L 78.593800 96.826276 L 84.347138 97.308358 Z
M 28.279005 127.935087 L 25.819836 122.711500 L 38.827574 103.988683 L 44.580912 104.470765 Z
M 185.366819 202.282203 L 187.826002 207.505783 L 174.818257 226.228615 L 169.064919 225.746540 Z
M 44.580912 104.470765 L 49.804492 102.011597 L 68.527317 115.019342 L 68.045227 120.772680 Z
M 84.347138 97.308358 L 89.570710 94.849190 L 108.293543 107.856920 L 107.811445 113.610273 Z
M 140.415275 66.681629 L 151.480610 68.281045 L 187.826002 93.532106 L 187.343905 99.285444 Z
M 169.064919 225.746540 L 163.841346 228.205709 L 123.389700 200.101813 L 122.136274 193.142718 Z
M 161.902511 185.980311 L 167.126069 183.521127 L 185.848931 196.528880 L 185.366819 202.282203 Z
M 154.740104 146.214088 L 159.963677 143.754920 L 178.686509 156.762650 L 178.204412 162.515989 Z
M 75.207645 160.538903 L 69.984054 162.998071 L 29.532423 134.894168 L 28.279005 127.935087 Z
M 178.204412 162.515989 L 180.663595 167.739568 L 167.655835 186.462393 L 161.902511 185.980311 Z '/>
<path class='convex' d=' M 44.580912 104.470765 L 28.279005 127.935087
M 185.366819 202.282203 L 161.902511 185.980311
M 171.042005 122.749766 L 124.113360 90.145936
M 161.902511 185.980311 L 178.204412 162.515989
M 122.136274 193.142718 L 169.064919 225.746540
M 68.045227 120.772680 L 44.580912 104.470765
M 107.811445 113.610273 L 75.207645 160.538903
M 169.064919 225.746540 L 185.366819 202.282203
M 154.740104 146.214088 L 107.811445 113.610273
M 84.347138 97.308358 L 68.045227 120.772680
M 122.136274 193.142718 L 75.207645 160.538903
M 89.532459 240.071362 L 42.603819 207.467547
M 73.230544 263.535677 L 26.301919 230.931846
M 122.136274 193.142718 L 154.740104 146.214088
M 28.279005 127.935087 L 75.207645 160.538903
M 178.204412 162.515989 L 154.740104 146.214088
M 107.811445 113.610273 L 84.347138 97.308358 '/>
<path class='concave' d=' M 187.343905 99.285444 L 140.415275 66.681629 '/>
<path class='outer' d=' M 10.000000 254.396176 L 26.301919 230.931846 L 42.603819 207.467547 L 75.207645 160.538903 L 69.984054 162.998071 L 29.532423 134.894168 L 28.279005 127.935087 L 25.819836 122.711500 L 38.827574 103.988683 L 44.580912 104.470765 L 49.804492 102.011597 L 68.527317 115.019342 L 68.045227 120.772680 L 65.586058 115.549078 L 78.593800 96.826276 L 84.347138 97.308358 L 89.570710 94.849190 L 108.293543 107.856920 L 107.811445 113.610273 L 124.113360 90.145936 L 140.415275 66.681629 L 151.480610 68.281045 L 187.826002 93.532106 L 187.343905 99.285444 L 171.042005 122.749766 L 154.740104 146.214088 L 159.963677 143.754920 L 178.686509 156.762650 L 178.204412 162.515989 L 180.663595 167.739568 L 167.655835 186.462393 L 161.902511 185.980311 L 167.126069 183.521127 L 185.848931 196.528880 L 185.366819 202.282203 L 187.826002 207.505783 L 174.818257 226.228615 L 169.064919 225.746540 L 163.841346 228.205709 L 123.389700 200.101813 L 122.136274 193.142718 L 89.532459 240.071362 L 73.230544 263.535677 L 56.928640 286.999991 Z '/>
<g><path transform='matrix(-2.852834 4.106256 -4.106256 -2.852834 132.264310 78.413790)' class='arrow' d='M 0 0 L 1 1 L 0 0.25 L -1 1 Z'/><text transform='translate(128.568681 77.846250)' style='font-size:5.00'><tspan>1</tspan></text></g>
<text transform='matrix(0.570567 -0.821251 0.821251 0.570567 75.457061 108.526995)' style='font-size:4.50'><tspan>1</tspan></text>
<g><path transform='matrix(-2.852835 4.106256 -4.106256 -2.852835 18.150961 242.664007)' class='arrow' d='M 0 0 L 1 1 L 0 0.25 L -1 1 Z'/><text transform='translate(14.455331 242.096456)' style='font-size:5.00'><tspan>2</tspan></text></g>
<text transform='matrix(0.821251 0.570567 -0.570567 0.821251 56.826582 111.882588)' style='font-size:4.50'><tspan>2</tspan></text>
<g><path transform='matrix(4.106256 2.852834 -2.852834 4.106256 33.464318 270.698091)' class='arrow' d='M 0 0 L 1 1 L 0 0.25 L -1 1 Z'/><text transform='translate(30.896768 276.393721)' style='font-size:5.00'><tspan>3</tspan></text></g>
<text transform='matrix(0.821251 0.570567 -0.570567 0.821251 164.393106 82.244402)' style='font-size:4.50'><tspan>3</tspan></text>
<g><path transform='matrix(2.852834 -4.106256 4.106256 2.852834 65.079590 275.267830)' class='arrow' d='M 0 0 L 1 1 L 0 0.25 L -1 1 Z'/><text transform='translate(68.775220 279.835381)' style='font-size:5.00'><tspan>4</tspan></text></g>
<text transform='matrix(0.821251 0.570567 -0.570567 0.821251 174.148181 193.392118)' style='font-size:4.50'><tspan>4</tspan></text>
<g><path transform='matrix(2.852835 -4.106255 4.106255 2.852835 179.192955 111.017605)' class='arrow' d='M 0 0 L 1 1 L 0 0.25 L -1 1 Z'/><text transform='translate(182.888577 115.585154)' style='font-size:5.00'><tspan>5</tspan></text></g>
<text transform='matrix(-0.570567 0.821251 -0.821251 -0.570567 170.792589 174.761659)' style='font-size:4.50'><tspan>5</tspan></text>
</g>
</svg>
