<?xml version='1.0' encoding='UTF-8' standalone='no'?>
    <svg xmlns='http://www.w3.org/2000/svg' xmlns:xlink='http://www.w3.org/1999/xlink' version='1.1'
    width='210.00mm' height='297.00mm' viewBox='0 0 210.00 297.00'>
<style type="text/css">
    path {
        fill: none;
        stroke-linecap: butt;
        stroke-linejoin: bevel;
        stroke-dasharray: none;
    }
    path.outer {
        stroke: #000000;
        stroke-dasharray: none;
        stroke-dashoffset: 0;
        stroke-width: 0.3;
        stroke-opacity: 1.0;
    }
    path.convex {
        stroke: #000000;
        stroke-dasharray: 0.50,1.00;
        stroke-dashoffset:0;
        stroke-width:0.2;
        stroke-opacity: 1.0
    }
    path.concave {
        stroke: #000000;
        stroke-dasharray: 1.00,0.50,0.20,0.50;
        stroke-dashoffset: 0;
        stroke-width: 0.2;
        stroke-opacity: 1.0
    }
    path.freestyle {
        stroke: #000000;
        stroke-dasharray: none;
        stroke-dashoffset: 0;
        stroke-width: 0.2;
        stroke-opacity: 1.0
    }
    path.outer_background {
        stroke: #ffffff;
        stroke-opacity: 1.0;
        stroke-width: 0.5
    }
    path.inner_background {
        stroke: #ffffff;
        stroke-opacity: 1.0;
        stroke-width: 0.2
    }
    path.sticker {
        fill: #e5e5e5;
        stroke: none;
        fill-opacity: 1.0;
    }
    path.arrow {
        fill: #000;
    }
    text {
        font-style: normal;
        fill: #000000;
        fill-opacity: 1.0;
        stroke: none;
    }
    text, tspan {
        text-anchor:middle;
    }
    </style>
<g>
<path class='sticker' d=' M 71.049707 258.401623 L 73.247442 263.740467 L 56.422243 285.568370 L 50.699802 284.802249 Z
M 12.197742 170.951312 L 10.000000 165.612465 L 42.832466 123.017779 L 52.897537 118.150076 Z
M 84.250012 268.576572 L 78.911165 270.774310 L 70.283571 264.124064 L 71.049707 258.401623 Z
M 104.599917 242.175950 L 106.797660 247.514797 L 89.972461 269.342700 L 84.250012 268.576572 Z
M 31.448772 227.876773 L 29.251033 222.537933 L 46.076233 200.710027 L 51.798673 201.476155 Z
M 50.699802 284.802249 L 45.360954 286.999991 L 23.533059 270.174788 L 24.299184 264.452344 Z
M 152.449289 152.799135 L 157.788137 150.601408 L 166.415730 157.251647 L 165.649602 162.974095 Z
M 92.498476 148.674926 L 90.300733 143.336063 L 107.125917 121.508172 L 112.848366 122.274300 Z
M 44.649089 238.051726 L 39.310241 240.249468 L 30.682648 233.599218 L 31.448772 227.876773 Z
M 146.398583 106.048634 L 151.737431 103.850892 L 173.565308 120.676091 L 172.799179 126.398524 Z
M 184.900651 219.899556 L 187.098378 225.238411 L 154.265890 267.833104 L 144.200841 272.700800 Z
M 165.649602 162.974095 L 167.847345 168.312958 L 151.022160 190.140842 L 145.299712 189.374721 Z
M 24.299184 264.452344 L 22.101445 259.113500 L 38.926641 237.285601 L 44.649089 238.051726 Z
M 112.848366 122.274300 L 118.187198 120.076558 L 126.814792 126.726797 L 126.048679 132.449245 Z
M 172.799179 126.398524 L 174.996922 131.737372 L 158.171752 153.565263 L 152.449289 152.799135 Z '/>
<path class='convex' d=' M 166.748473 79.648023 L 113.947237 38.948214
M 145.299712 189.374721 L 92.498476 148.674926
M 92.498476 148.674926 L 51.798673 201.476155
M 145.299712 189.374721 L 104.599917 242.175950
M 165.649602 162.974095 L 152.449289 152.799135
M 171.700338 209.724611 L 131.000543 262.525862
M 84.250012 268.576572 L 104.599917 242.175950
M 145.299712 189.374721 L 165.649602 162.974095
M 71.049707 258.401623 L 84.250012 268.576572
M 146.398583 106.048634 L 126.048679 132.449245
M 44.649089 238.051726 L 24.299184 264.452344
M 126.048679 132.449245 L 112.848366 122.274300
M 66.097850 128.325021 L 25.398055 181.126257
M 24.299184 264.452344 L 50.699802 284.802249
M 50.699802 284.802249 L 71.049707 258.401623
M 104.599917 242.175950 L 51.798673 201.476155
M 172.799179 126.398524 L 146.398583 106.048634
M 51.798673 201.476155 L 31.448772 227.876773
M 146.398583 106.048634 L 93.597332 65.348824
M 152.449289 152.799135 L 172.799179 126.398524
M 31.448772 227.876773 L 44.649089 238.051726
M 112.848366 122.274300 L 92.498476 148.674926 '/>
<path class='concave' d=' M 144.200841 272.700800 L 184.900651 219.899556
M 52.897537 118.150076 L 12.197742 170.951312 '/>
<path class='outer' d=' M 134.297142 12.547603 L 187.098378 53.247398 L 166.748473 79.648023 L 146.398583 106.048634 L 151.737431 103.850892 L 173.565308 120.676091 L 172.799179 126.398524 L 174.996922 131.737372 L 158.171752 153.565263 L 152.449289 152.799135 L 157.788137 150.601408 L 166.415730 157.251647 L 165.649602 162.974095 L 167.847345 168.312958 L 151.022160 190.140842 L 145.299712 189.374721 L 171.700338 209.724611 L 184.900651 219.899556 L 187.098378 225.238411 L 154.265890 267.833104 L 144.200841 272.700800 L 131.000543 262.525862 L 104.599917 242.175950 L 106.797660 247.514797 L 89.972461 269.342700 L 84.250012 268.576572 L 78.911165 270.774310 L 70.283571 264.124064 L 71.049707 258.401623 L 73.247442 263.740467 L 56.422243 285.568370 L 50.699802 284.802249 L 45.360954 286.999991 L 23.533059 270.174788 L 24.299184 264.452344 L 22.101445 259.113500 L 38.926641 237.285601 L 44.649089 238.051726 L 39.310241 240.249468 L 30.682648 233.599218 L 31.448772 227.876773 L 29.251033 222.537933 L 46.076233 200.710027 L 51.798673 201.476155 L 25.398055 181.126257 L 12.197742 170.951312 L 10.000000 165.612465 L 42.832466 123.017779 L 52.897537 118.150076 L 66.097850 128.325021 L 92.498476 148.674926 L 90.300733 143.336063 L 107.125917 121.508172 L 112.848366 122.274300 L 118.187198 120.076558 L 126.814792 126.726797 L 126.048679 132.449245 L 73.247442 91.749435 L 93.597332 65.348824 L 113.947237 38.948214 Z '/>
<g><path transform='matrix(-3.052485 3.960093 -3.960093 -3.052485 124.122182 25.747886)' class='arrow' d='M 0 0 L 1 1 L 0 0.25 L -1 1 Z'/><text transform='translate(120.558100 25.000652)' style='font-size:5.00'><tspan>1</tspan></text></g>
<text transform='matrix(-0.610497 0.792019 -0.792019 -0.610497 61.587574 272.151386)' style='font-size:4.50'><tspan>1</tspan></text>
<g><path transform='matrix(3.960093 3.052485 -3.052485 3.960093 99.648068 112.099340)' class='arrow' d='M 0 0 L 1 1 L 0 0.25 L -1 1 Z'/><text transform='translate(96.900830 117.663434)' style='font-size:5.00'><tspan>2</tspan></text></g>
<text transform='matrix(0.610497 -0.792019 0.792019 0.610497 31.834820 144.001236)' style='font-size:4.50'><tspan>2</tspan></text>
<g><path transform='matrix(3.960093 3.052485 -3.052485 3.960093 137.600699 267.613335)' class='arrow' d='M 0 0 L 1 1 L 0 0.25 L -1 1 Z'/><text transform='translate(134.853462 273.177419)' style='font-size:5.00'><tspan>3</tspan></text></g>
<text transform='matrix(-0.792019 -0.610497 0.610497 -0.792019 77.100405 264.201915)' style='font-size:4.50'><tspan>3</tspan></text>
<g><path transform='matrix(-3.960093 -3.052485 3.052485 -3.960093 178.300509 214.812091)' class='arrow' d='M 0 0 L 1 1 L 0 0.25 L -1 1 Z'/><text transform='translate(181.047747 213.248005)' style='font-size:5.00'><tspan>4</tspan></text></g>
<text transform='matrix(0.792019 0.610497 -0.610497 0.792019 159.598896 157.173803)' style='font-size:4.50'><tspan>4</tspan></text>
<g><path transform='matrix(3.960094 3.052483 -3.052483 3.960094 18.797899 176.038785)' class='arrow' d='M 0 0 L 1 1 L 0 0.25 L -1 1 Z'/><text transform='translate(16.050664 181.602864)' style='font-size:5.00'><tspan>5</tspan></text></g>
<text transform='matrix(-0.792019 -0.610497 0.610497 -0.792019 37.499482 233.677069)' style='font-size:4.50'><tspan>5</tspan></text>
<g><path transform='matrix(-3.960093 -3.052485 3.052485 -3.960093 160.697768 32.897493)' class='arrow' d='M 0 0 L 1 1 L 0 0.25 L -1 1 Z'/><text transform='translate(163.445005 31.333407)' style='font-size:5.00'><tspan>6.</tspan></text></g>
<text transform='matrix(-0.610497 0.792019 -0.792019 -0.610497 165.263573 246.849624)' style='font-size:4.50'><tspan>6.</tspan></text>
<g><path transform='matrix(-3.052485 3.960093 -3.960093 -3.052485 83.422394 78.549137)' class='arrow' d='M 0 0 L 1 1 L 0 0.25 L -1 1 Z'/><text transform='translate(79.858312 77.801904)' style='font-size:5.00'><tspan>7</tspan></text></g>
<text transform='matrix(0.610497 -0.792019 0.792019 0.610497 33.761317 250.702588)' style='font-size:4.50'><tspan>7</tspan></text>
<g><path transform='matrix(3.052485 -3.960093 3.960093 3.052485 176.923418 66.447711)' class='arrow' d='M 0 0 L 1 1 L 0 0.25 L -1 1 Z'/><text transform='translate(180.487508 71.194952)' style='font-size:5.00'><tspan>8</tspan></text></g>
<text transform='matrix(-0.610497 0.792019 -0.792019 -0.610497 163.337061 140.148288)' style='font-size:4.50'><tspan>8</tspan></text>
</g>
</svg>
