# Created by FreeCAD <http://www.freecadweb.org>
v -40.000000 10.000000 20.000000
v -40.000000 0.000000 0.000000
v -40.000000 0.000000 20.000000
v -40.000000 40.000000 0.000000
v -40.000000 30.000000 20.000000
v -40.000000 40.000000 20.000000
v -40.000000 30.000000 40.000000
v -40.000000 10.000000 40.000000
v 0.000000 30.000000 20.000000
v 0.000000 40.000000 20.000000
v 0.000000 0.000000 0.000000
v 0.000000 10.000000 20.000000
v 0.000000 0.000000 20.000000
v 0.000000 30.000000 40.000000
v 0.000000 10.000000 40.000000
v 0.000000 40.000000 0.000000
vn -1.000000 -0.000000 0.000000
vn -1.000000 0.000000 0.000000
vn -1.000000 -0.000000 -0.000000
vn -1.000000 -0.000000 -0.000000
vn -1.000000 -0.000000 0.000000
vn -1.000000 0.000000 -0.000000
vn 0.000000 0.000000 1.000000
vn -0.000000 0.000000 1.000000
vn 1.000000 -0.000000 0.000000
vn 1.000000 -0.000000 0.000000
vn 1.000000 -0.000000 0.000000
vn 1.000000 -0.000000 0.000000
vn 1.000000 -0.000000 0.000000
vn 1.000000 -0.000000 -0.000000
vn 0.000000 0.000000 1.000000
vn -0.000000 0.000000 1.000000
vn 0.000000 1.000000 0.000000
vn 0.000000 1.000000 0.000000
vn -0.000000 -1.000000 0.000000
vn -0.000000 -1.000000 0.000000
vn 0.000000 0.000000 -1.000000
vn 0.000000 0.000000 -1.000000
vn 0.000000 -1.000000 0.000000
vn 0.000000 -1.000000 0.000000
vn 0.000000 0.000000 1.000000
vn -0.000000 0.000000 1.000000
vn 0.000000 1.000000 0.000000
vn 0.000000 1.000000 0.000000
f 1//1 2//1 3//1
f 4//2 2//2 1//2
f 5//3 4//3 1//3
f 6//4 4//4 5//4
f 7//5 1//5 8//5
f 7//6 5//6 1//6
f 6//7 5//7 9//7
f 6//8 9//8 10//8
f 11//9 12//9 13//9
f 9//10 14//10 15//10
f 9//11 15//11 12//11
f 9//12 12//12 11//12
f 16//13 10//13 9//13
f 16//14 9//14 11//14
f 1//15 3//15 13//15
f 1//16 13//16 12//16
f 10//17 4//17 6//17
f 10//18 16//18 4//18
f 11//19 3//19 2//19
f 11//20 13//20 3//20
f 2//21 4//21 16//21
f 2//22 16//22 11//22
f 12//23 8//23 1//23
f 12//24 15//24 8//24
f 7//25 8//25 15//25
f 7//26 15//26 14//26
f 14//27 5//27 7//27
f 14//28 9//28 5//28
