# Created by FreeCAD <http://www.freecadweb.org>
v 40.000000 20.000000 20.000000
v 40.000000 40.000000 0.000000
v 40.000000 40.000000 40.000000
v 40.000000 0.000000 0.000000
v 40.000000 0.000000 20.000000
v 40.000000 20.000000 40.000000
v 20.000000 20.000000 40.000000
v 0.000000 40.000000 40.000000
v 0.000000 0.000000 40.000000
v 20.000000 0.000000 40.000000
v 0.000000 0.000000 0.000000
v 0.000000 40.000000 0.000000
v 20.000000 0.000000 20.000000
v 20.000000 20.000000 20.000000
vn 1.000000 -0.000000 0.000000
vn 1.000000 0.000000 0.000000
vn 1.000000 -0.000000 0.000000
vn 1.000000 -0.000000 0.000000
vn 0.000000 0.000000 1.000000
vn 0.000000 0.000000 1.000000
vn 0.000000 0.000000 1.000000
vn 0.000000 0.000000 1.000000
vn -1.000000 0.000000 0.000000
vn -1.000000 0.000000 0.000000
vn 0.000000 1.000000 0.000000
vn 0.000000 1.000000 0.000000
vn 0.000000 0.000000 -1.000000
vn 0.000000 0.000000 -1.000000
vn 0.000000 -1.000000 0.000000
vn 0.000000 -1.000000 0.000000
vn 0.000000 -1.000000 0.000000
vn 0.000000 -1.000000 0.000000
vn 1.000000 -0.000000 0.000000
vn 1.000000 0.000000 0.000000
vn 0.000000 -1.000000 0.000000
vn 0.000000 -1.000000 0.000000
vn 0.000000 0.000000 1.000000
vn 0.000000 0.000000 1.000000
f 1//1 2//1 3//1
f 4//2 2//2 1//2
f 5//3 4//3 1//3
f 6//4 1//4 3//4
f 7//5 8//5 9//5
f 7//6 9//6 10//6
f 3//7 7//7 6//7
f 3//8 8//8 7//8
f 11//9 8//9 12//9
f 11//10 9//10 8//10
f 3//11 2//11 12//11
f 3//12 12//12 8//12
f 12//13 2//13 4//13
f 12//14 4//14 11//14
f 13//15 10//15 9//15
f 11//16 13//16 9//16
f 4//17 5//17 13//17
f 4//18 13//18 11//18
f 10//19 14//19 7//19
f 10//20 13//20 14//20
f 1//21 6//21 7//21
f 1//22 7//22 14//22
f 1//23 14//23 13//23
f 1//24 13//24 5//24
