<?xml version='1.0' encoding='UTF-8' standalone='no'?>
    <svg xmlns='http://www.w3.org/2000/svg' xmlns:xlink='http://www.w3.org/1999/xlink' version='1.1'
    width='210.00mm' height='297.00mm' viewBox='0 0 210.00 297.00'>
<style type="text/css">
    path {
        fill: none;
        stroke-linecap: butt;
        stroke-linejoin: bevel;
        stroke-dasharray: none;
    }
    path.outer {
        stroke: #000000;
        stroke-dasharray: none;
        stroke-dashoffset: 0;
        stroke-width: 0.3;
        stroke-opacity: 1.0;
    }
    path.convex {
        stroke: #000000;
        stroke-dasharray: 0.50,1.00;
        stroke-dashoffset:0;
        stroke-width:0.2;
        stroke-opacity: 1.0
    }
    path.concave {
        stroke: #000000;
        stroke-dasharray: 1.00,0.50,0.20,0.50;
        stroke-dashoffset: 0;
        stroke-width: 0.2;
        stroke-opacity: 1.0
    }
    path.freestyle {
        stroke: #000000;
        stroke-dasharray: none;
        stroke-dashoffset: 0;
        stroke-width: 0.2;
        stroke-opacity: 1.0
    }
    path.outer_background {
        stroke: #ffffff;
        stroke-opacity: 1.0;
        stroke-width: 0.5
    }
    path.inner_background {
        stroke: #ffffff;
        stroke-opacity: 1.0;
        stroke-width: 0.2
    }
    path.sticker {
        fill: #e5e5e5;
        stroke: none;
        fill-opacity: 1.0;
    }
    path.arrow {
        fill: #000;
    }
    text {
        font-style: normal;
        fill: #000000;
        fill-opacity: 1.0;
        stroke: none;
    }
    text, tspan {
        text-anchor:middle;
    }
    </style>
<g>
<path class='sticker' d=' M 95.649349 224.530486 L 88.621529 223.749621 L 75.699912 207.597597 L 77.800917 202.219946 Z
M 149.194622 108.515685 L 150.063926 114.223367 L 133.911924 127.144998 L 126.884105 126.364132 Z
M 153.656730 251.303127 L 154.526049 257.010812 L 138.374025 269.932430 L 131.346205 269.151565 Z
M 135.808313 228.992591 L 141.515994 228.123290 L 154.437596 244.275307 L 153.656730 251.303127 Z
M 68.876700 99.591469 L 74.584389 98.722165 L 87.505998 114.874205 L 86.725133 121.902024 Z
M 91.187233 81.743052 L 91.968099 74.715232 L 108.120130 61.793601 L 113.497781 63.894605 Z
M 153.656745 68.356713 L 154.526049 74.064394 L 138.374025 86.986026 L 131.346213 86.205160 Z
M 10.869302 72.818836 L 10.000000 67.111155 L 26.152018 54.189539 L 33.179838 54.970404 Z
M 73.338801 59.432527 L 72.557935 66.460347 L 56.405919 79.381948 L 51.028268 77.280944 Z
M 82.263025 162.060982 L 75.235205 161.280116 L 45.785295 124.467721 L 46.566160 117.439901 Z
M 46.566160 117.439901 L 39.538343 116.659051 L 26.616726 100.507027 L 28.717730 95.129376 Z
M 117.959881 206.682054 L 124.987701 207.462920 L 137.909317 223.614944 L 135.808313 228.992591 Z
M 109.035658 104.053592 L 103.327977 104.922911 L 90.406368 88.770872 L 91.187233 81.743052 Z
M 144.732529 148.674672 L 143.951649 155.702492 L 127.799647 168.624086 L 122.421997 166.523082 Z
M 91.187241 264.689457 L 91.968114 257.661637 L 108.120130 244.740019 L 113.497781 246.841019 Z
M 28.717730 95.129376 L 23.010047 95.998680 L 10.088433 79.846656 L 10.869302 72.818836 Z '/>
<path class='convex' d=' M 113.497781 246.841019 L 131.346205 269.151565
M 51.028268 77.280944 L 33.179838 54.970404
M 46.566160 117.439901 L 82.263025 162.060982
M 51.028268 77.280944 L 73.338801 59.432527
M 28.717730 95.129376 L 46.566160 117.439901
M 10.869302 72.818836 L 28.717730 95.129376
M 113.497781 246.841019 L 91.187241 264.689457
M 51.028268 77.280944 L 28.717730 95.129376
M 126.884105 126.364132 L 149.194622 108.515685
M 109.035658 104.053592 L 131.346213 86.205160
M 131.346213 86.205160 L 113.497781 63.894605
M 95.649349 224.530486 L 117.959881 206.682054
M 46.566160 117.439901 L 68.876700 99.591469
M 109.035658 104.053592 L 126.884105 126.364132
M 77.800917 202.219946 L 95.649349 224.530486
M 131.346213 86.205160 L 153.656745 68.356713
M 91.187233 81.743052 L 109.035658 104.053592
M 135.808313 228.992591 L 117.959881 206.682054
M 86.725133 121.902024 L 68.876700 99.591469
M 113.497781 246.841019 L 135.808313 228.992591
M 122.421997 166.523082 L 144.732529 148.674672
M 82.263025 162.060982 L 126.884105 126.364132
M 153.656730 251.303127 L 135.808313 228.992591
M 117.959881 206.682054 L 82.263025 162.060982 '/>
<path class='concave' d=' M 131.346205 269.151565 L 153.656730 251.303127
M 33.179838 54.970404 L 10.869302 72.818836
M 113.497781 63.894605 L 91.187233 81.743052 '/>
<path class='outer' d=' M 150.063926 114.223367 L 133.911924 127.144998 L 126.884105 126.364132 L 144.732529 148.674672 L 143.951649 155.702492 L 127.799647 168.624086 L 122.421997 166.523082 L 140.270406 188.833622 L 117.959881 206.682054 L 124.987701 207.462920 L 137.909317 223.614944 L 135.808313 228.992591 L 141.515994 228.123290 L 154.437596 244.275307 L 153.656730 251.303127 L 154.526049 257.010812 L 138.374025 269.932430 L 131.346205 269.151565 L 109.035673 286.999991 L 91.187241 264.689457 L 91.968114 257.661637 L 108.120130 244.740019 L 113.497781 246.841019 L 95.649349 224.530486 L 88.621529 223.749621 L 75.699912 207.597597 L 77.800917 202.219946 L 55.490380 220.068378 L 37.641950 197.757838 L 82.263025 162.060982 L 75.235205 161.280116 L 45.785295 124.467721 L 46.566160 117.439901 L 39.538343 116.659051 L 26.616726 100.507027 L 28.717730 95.129376 L 23.010047 95.998680 L 10.088433 79.846656 L 10.869302 72.818836 L 10.000000 67.111155 L 26.152018 54.189539 L 33.179838 54.970404 L 55.490376 37.121972 L 73.338801 59.432527 L 72.557935 66.460347 L 56.405919 79.381948 L 51.028268 77.280944 L 68.876700 99.591469 L 74.584389 98.722165 L 87.505998 114.874205 L 86.725133 121.902024 L 109.035658 104.053592 L 103.327977 104.922911 L 90.406368 88.770872 L 91.187233 81.743052 L 91.968099 74.715232 L 108.120130 61.793601 L 113.497781 63.894605 L 135.808298 46.046188 L 153.656745 68.356713 L 154.526049 74.064394 L 138.374025 86.986026 L 131.346213 86.205160 L 149.194622 108.515685 Z '/>
<g><path transform='matrix(3.123476 3.904345 -3.904345 3.123476 100.111457 275.844723)' class='arrow' d='M 0 0 L 1 1 L 0 0.25 L -1 1 Z'/><text transform='translate(96.597547 280.655852)' style='font-size:5.00'><tspan>1</tspan></text></g>
<text transform='matrix(-0.624695 -0.780869 0.780869 -0.624695 86.022349 213.937445)' style='font-size:4.50'><tspan>1</tspan></text>
<g><path transform='matrix(-3.904345 3.123475 -3.123475 -3.904345 124.653051 54.970404)' class='arrow' d='M 0 0 L 1 1 L 0 0.25 L -1 1 Z'/><text transform='translate(121.841924 53.456506)' style='font-size:5.00'><tspan>2</tspan></text></g>
<text transform='matrix(-0.780869 0.624695 -0.624695 -0.780869 143.063689 260.930128)' style='font-size:4.50'><tspan>2</tspan></text>
<g><path transform='matrix(-3.123475 -3.904345 3.904345 -3.123475 131.346213 177.678352)' class='arrow' d='M 0 0 L 1 1 L 0 0.25 L -1 1 Z'/><text transform='translate(134.860123 176.867222)' style='font-size:5.00'><tspan>3</tspan></text></g>
<text transform='matrix(0.624695 0.780869 -0.780869 0.624695 145.435298 239.585632)' style='font-size:4.50'><tspan>3</tspan></text>
<g><path transform='matrix(-3.123474 -3.904346 3.904346 -3.123474 64.414592 48.277250)' class='arrow' d='M 0 0 L 1 1 L 0 0.25 L -1 1 Z'/><text transform='translate(67.928502 47.466120)' style='font-size:5.00'><tspan>4</tspan></text></g>
<text transform='matrix(0.624695 0.780869 -0.780869 0.624695 78.503700 110.184526)' style='font-size:4.50'><tspan>4</tspan></text>
<g><path transform='matrix(-3.904345 3.123474 -3.123474 -3.904345 44.335106 46.046173)' class='arrow' d='M 0 0 L 1 1 L 0 0.25 L -1 1 Z'/><text transform='translate(41.523980 44.532260)' style='font-size:5.00'><tspan>5</tspan></text></g>
<text transform='matrix(0.780869 -0.624695 0.624695 0.780869 101.780282 72.116053)' style='font-size:4.50'><tspan>5</tspan></text>
<g><path transform='matrix(3.904345 -3.123475 3.123475 3.904345 120.190943 278.075777)' class='arrow' d='M 0 0 L 1 1 L 0 0.25 L -1 1 Z'/><text transform='translate(123.002069 283.589687)' style='font-size:5.00'><tspan>6.</tspan></text></g>
<text transform='matrix(0.780869 -0.624695 0.624695 0.780869 21.462345 63.191837)' style='font-size:4.50'><tspan>6.</tspan></text>
<g><path transform='matrix(-3.123477 -3.904342 3.904342 -3.123477 144.732514 57.201451)' class='arrow' d='M 0 0 L 1 1 L 0 0.25 L -1 1 Z'/><text transform='translate(148.246417 56.390321)' style='font-size:5.00'><tspan>7</tspan></text></g>
<text transform='matrix(-0.780869 0.624695 -0.624695 -0.780869 134.139495 158.301657)' style='font-size:4.50'><tspan>7</tspan></text>
<g><path transform='matrix(3.904345 -3.123476 3.123476 3.904345 66.645646 211.144162)' class='arrow' d='M 0 0 L 1 1 L 0 0.25 L -1 1 Z'/><text transform='translate(69.456773 216.658069)' style='font-size:5.00'><tspan>8</tspan></text></g>
<text transform='matrix(-0.624695 -0.780869 0.780869 -0.624695 19.090733 84.536334)' style='font-size:4.50'><tspan>8</tspan></text>
</g>
</svg>
