<?xml version="1.0" encoding="UTF-8" standalone="no"?>
<svg
   xmlns:dc="http://purl.org/dc/elements/1.1/"
   xmlns:cc="http://creativecommons.org/ns#"
   xmlns:rdf="http://www.w3.org/1999/02/22-rdf-syntax-ns#"
   xmlns:svg="http://www.w3.org/2000/svg"
   xmlns="http://www.w3.org/2000/svg"
   xmlns:sodipodi="http://sodipodi.sourceforge.net/DTD/sodipodi-0.dtd"
   xmlns:inkscape="http://www.inkscape.org/namespaces/inkscape"
   version="1.1"
   width="210.00mm"
   height="297.00mm"
   viewBox="0 0 210.00 297.00"
   id="svg106"
   sodipodi:docname="00110_facil-easy_page1.svg"
   inkscape:version="0.92.1 r15371">
  <metadata
     id="metadata112">
    <rdf:RDF>
      <cc:Work
         rdf:about="">
        <dc:format>image/svg+xml</dc:format>
        <dc:type
           rdf:resource="http://purl.org/dc/dcmitype/StillImage" />
      </cc:Work>
    </rdf:RDF>
  </metadata>
  <defs
     id="defs110" />
  <sodipodi:namedview
     pagecolor="#ffffff"
     bordercolor="#666666"
     borderopacity="1"
     objecttolerance="10"
     gridtolerance="10"
     guidetolerance="10"
     inkscape:pageopacity="0"
     inkscape:pageshadow="2"
     inkscape:window-width="640"
     inkscape:window-height="480"
     id="namedview108"
     showgrid="false"
     inkscape:zoom="0.2102413"
     inkscape:cx="396.85039"
     inkscape:cy="561.25984"
     inkscape:window-x="0"
     inkscape:window-y="29"
     inkscape:window-maximized="0"
     inkscape:current-layer="svg106" />
  <style
     type="text/css"
     id="style2">
    path {
        fill: none;
        stroke-linecap: butt;
        stroke-linejoin: bevel;
        stroke-dasharray: none;
    }
    path.outer {
        stroke: #000000;
        stroke-dasharray: none;
        stroke-dashoffset: 0;
        stroke-width: 0.3;
        stroke-opacity: 1.0;
    }
    path.convex {
        stroke: #000000;
        stroke-dasharray: 0.50,1.00;
        stroke-dashoffset:0;
        stroke-width:0.2;
        stroke-opacity: 1.0
    }
    path.concave {
        stroke: #000000;
        stroke-dasharray: 1.00,0.50,0.20,0.50;
        stroke-dashoffset: 0;
        stroke-width: 0.2;
        stroke-opacity: 1.0
    }
    path.freestyle {
        stroke: #000000;
        stroke-dasharray: none;
        stroke-dashoffset: 0;
        stroke-width: 0.2;
        stroke-opacity: 1.0
    }
    path.outer_background {
        stroke: #ffffff;
        stroke-opacity: 1.0;
        stroke-width: 0.5
    }
    path.inner_background {
        stroke: #ffffff;
        stroke-opacity: 1.0;
        stroke-width: 0.2
    }
    path.sticker {
        fill: #e5e5e5;
        stroke: none;
        fill-opacity: 1.0;
    }
    path.arrow {
        fill: #000;
    }
    text {
        font-style: normal;
        fill: #000000;
        fill-opacity: 1.0;
        stroke: none;
    }
    text, tspan {
        text-anchor:middle;
    }
    </style>
  <g
     id="g104">
    <text
       transform="translate(87.37639524042606 285.99999118596315)"
       style="font-size:5.00"
       id="text6">
      <tspan
         id="tspan4">[1] Island 1</tspan>
    </text>
    <path
       class="sticker"
       d=" M 141.439522 203.623613 L 148.209954 205.663523 L 164.752791 236.473637 L 161.713192 241.382224 Z M 99.962601 96.176049 L 106.733033 98.215973 L 109.760078 103.853693 L 106.720487 108.762270 Z M 91.094682 230.655165 L 90.916621 236.425923 L 83.417075 240.452642 L 78.508483 237.413058 Z M 20.476190 219.928114 L 14.705435 219.750045 L 10.678714 212.250492 L 13.718302 207.341900 Z M 161.713192 241.382224 L 161.535123 247.152979 L 154.035563 251.179701 L 149.126986 248.140113 Z M 10.000000 79.620680 L 12.039912 72.850248 L 42.850034 56.307426 L 47.758618 59.347024 Z M 47.758618 59.347024 L 53.740637 59.918543 L 64.313987 79.610860 L 61.274400 84.519437 Z M 13.718302 207.341900 L 15.758215 200.571468 L 59.154538 177.270746 L 64.063126 180.310344 Z M 87.376388 102.933949 L 87.554449 97.163206 L 95.054010 93.136465 L 99.962601 96.176049 Z M 58.234813 199.654436 L 57.663290 205.636447 L 25.384782 222.967697 L 20.476190 219.928114 Z M 61.274400 84.519437 L 61.452465 78.748694 L 68.952018 74.721953 L 73.860610 77.761551 Z M 78.508483 237.413058 L 72.737725 237.234989 L 56.194903 206.424868 L 58.234813 199.654436 Z M 149.126986 248.140113 L 143.144989 247.568594 L 132.571610 227.876289 L 135.611201 222.967705 Z M 164.752791 126.247218 L 164.574722 132.017976 L 121.178383 155.318698 L 114.407944 153.278789 Z "
       id="path8" />
    <path
       class="convex"
       d=" M 149.126986 248.140113 L 161.713192 241.382224 M 91.094682 230.655165 L 141.439522 203.623613 M 87.376388 102.933949 L 114.407944 153.278789 M 87.376388 102.933949 L 37.031559 129.965520 M 106.720487 108.762270 L 99.962601 96.176049 M 64.063126 180.310344 L 13.718302 207.341900 M 58.234813 199.654436 L 78.508483 237.413058 M 114.407944 153.278789 L 64.063126 180.310344 M 78.508483 237.413058 L 91.094682 230.655165 M 64.063126 180.310344 L 91.094682 230.655165 M 114.407944 153.278789 L 164.752791 126.247218 M 97.852582 243.241375 L 135.611201 222.967705 M 99.962601 96.176049 L 87.376388 102.933949 M 13.718302 207.341900 L 20.476190 219.928114 M 20.476190 219.928114 L 58.234813 199.654436 M 161.713192 241.382224 L 141.439522 203.623613 M 80.618503 90.347743 L 30.273680 117.379313 M 135.611201 222.967705 L 149.126986 248.140113 "
       id="path10" />
    <path
       class="concave"
       d=" M 73.860610 77.761551 L 61.274400 84.519437 M 61.274400 84.519437 L 47.758618 59.347024 M 47.758618 59.347024 L 10.000000 79.620680 "
       id="path12" />
    <path
       class="outer"
       d=" M 161.535123 247.152979 L 154.035563 251.179701 L 149.126986 248.140113 L 143.144989 247.568594 L 132.571610 227.876289 L 135.611201 222.967705 L 155.884871 260.726323 L 118.126238 280.999991 L 97.852582 243.241375 L 91.094682 230.655165 L 90.916621 236.425923 L 83.417075 240.452642 L 78.508483 237.413058 L 72.737725 237.234989 L 56.194903 206.424868 L 58.234813 199.654436 L 57.663290 205.636447 L 25.384782 222.967697 L 20.476190 219.928114 L 14.705435 219.750045 L 10.678714 212.250492 L 13.718302 207.341900 L 15.758215 200.571468 L 59.154538 177.270746 L 64.063126 180.310344 L 37.031559 129.965520 L 30.273680 117.379313 L 10.000000 79.620680 L 12.039912 72.850248 L 42.850034 56.307426 L 47.758618 59.347024 L 53.740637 59.918543 L 64.313987 79.610860 L 61.274400 84.519437 L 61.452465 78.748694 L 68.952018 74.721953 L 73.860610 77.761551 L 80.618503 90.347743 L 87.376388 102.933949 L 87.554449 97.163206 L 95.054010 93.136465 L 99.962601 96.176049 L 106.733033 98.215973 L 109.760078 103.853693 L 106.720487 108.762270 L 144.479120 88.488599 L 164.752791 126.247218 L 164.574722 132.017976 L 121.178383 155.318698 L 114.407944 153.278789 L 141.439522 203.623613 L 148.209954 205.663523 L 164.752791 236.473637 L 161.713192 241.382224 Z "
       id="path14" />
    <g
       id="g22">
      <path
         transform="matrix(-2.365261 -4.405172 4.405172 -2.365261 154.615948 107.367909)"
         class="arrow"
         d="M 0 0 L 1 1 L 0 0.25 L -1 1 Z"
         id="path16" />
      <text
         transform="translate(158.580596 107.239177)"
         style="font-size:5.00"
         id="text20">
        <tspan
           id="tspan18">1</tspan>
      </text>
    </g>
    <text
       transform="matrix(0.473052 0.881034 -0.881034 0.473052 152.369285 222.077167)"
       style="font-size:4.50"
       id="text26">
      <tspan
         id="tspan24">1</tspan>
    </text>
    <g
       id="g34">
      <path
         transform="matrix(-2.365263 -4.405171 4.405171 -2.365263 77.239553 84.054640)"
         class="arrow"
         d="M 0 0 L 1 1 L 0 0.25 L -1 1 Z"
         id="path28" />
      <text
         transform="translate(81.204208 83.925908)"
         style="font-size:5.00"
         id="text32">
        <tspan
           id="tspan30">2</tspan>
      </text>
    </g>
    <text
       transform="matrix(0.473052 0.881035 -0.881035 0.473052 104.134472 102.043411)"
       style="font-size:4.50"
       id="text38">
      <tspan
         id="tspan36">2</tspan>
    </text>
    <text
       transform="matrix(-0.881034 0.473052 -0.473052 -0.881034 155.845830 245.554106)"
       style="font-size:4.50"
       id="text42">
      <tspan
         id="tspan40">2:1</tspan>
    </text>
    <g
       id="g50">
      <path
         transform="matrix(4.405172 -2.365261 2.365261 4.405172 137.005562 270.863157)"
         class="arrow"
         d="M 0 0 L 1 1 L 0 0.25 L -1 1 Z"
         id="path44" />
      <text
         transform="translate(139.134297 276.827812)"
         style="font-size:5.00"
         id="text48">
        <tspan
           id="tspan46">3</tspan>
      </text>
    </g>
    <text
       transform="matrix(0.881035 -0.473052 0.473052 0.881035 28.453564 68.690917)"
       style="font-size:4.50"
       id="text54">
      <tspan
         id="tspan52">3</tspan>
    </text>
    <g
       id="g62">
      <path
         transform="matrix(-4.405171 2.365262 -2.365262 -4.405171 125.599796 98.625442)"
         class="arrow"
         d="M 0 0 L 1 1 L 0 0.25 L -1 1 Z"
         id="path56" />
      <text
         transform="translate(123.471061 96.660798)"
         style="font-size:5.00"
         id="text60">
        <tspan
           id="tspan58">4</tspan>
      </text>
    </g>
    <text
       transform="matrix(0.473052 0.881034 -0.881034 0.473052 55.309447 71.507504)"
       style="font-size:4.50"
       id="text66">
      <tspan
         id="tspan64">2:2</tspan>
    </text>
    <g
       id="g74">
      <path
         transform="matrix(2.365262 4.405172 -4.405172 2.365262 20.136841 98.499989)"
         class="arrow"
         d="M 0 0 L 1 1 L 0 0.25 L -1 1 Z"
         id="path68" />
      <text
         transform="translate(16.172186 102.628728)"
         style="font-size:5.00"
         id="text72">
        <tspan
           id="tspan70">5</tspan>
      </text>
    </g>
    <text
       transform="matrix(-0.881034 0.473052 -0.473052 -0.881034 39.781252 210.584199)"
       style="font-size:4.50"
       id="text78">
      <tspan
         id="tspan76">5</tspan>
    </text>
    <text
       transform="matrix(0.881034 -0.473053 0.473053 0.881034 67.141758 80.347573)"
       style="font-size:4.50"
       id="text82">
      <tspan
         id="tspan80">2:3</tspan>
    </text>
    <g
       id="g90">
      <path
         transform="matrix(2.365260 4.405172 -4.405172 2.365260 107.989410 262.120683)"
         class="arrow"
         d="M 0 0 L 1 1 L 0 0.25 L -1 1 Z"
         id="path84" />
      <text
         transform="translate(104.024755 266.249416)"
         style="font-size:5.00"
         id="text88">
        <tspan
           id="tspan86">6.</tspan>
      </text>
    </g>
    <text
       transform="matrix(-0.473052 -0.881034 0.881034 -0.473052 67.578712 218.959494)"
       style="font-size:4.50"
       id="text94">
      <tspan
         id="tspan92">6.</tspan>
    </text>
    <g
       id="g102">
      <path
         transform="matrix(-2.365262 -4.405171 4.405171 -2.365262 145.748029 241.847010)"
         class="arrow"
         d="M 0 0 L 1 1 L 0 0.25 L -1 1 Z"
         id="path96" />
      <text
         transform="translate(149.712676 241.718275)"
         style="font-size:5.00"
         id="text100">
        <tspan
           id="tspan98">7</tspan>
      </text>
    </g>
  </g>
  <style
     id="style208"
     type="text/css">
    path {
        fill: none;
        stroke-linecap: butt;
        stroke-linejoin: bevel;
        stroke-dasharray: none;
    }
    path.outer {
        stroke: #000000;
        stroke-dasharray: none;
        stroke-dashoffset: 0;
        stroke-width: 0.3;
        stroke-opacity: 1.0;
    }
    path.convex {
        stroke: #000000;
        stroke-dasharray: 0.50,1.00;
        stroke-dashoffset:0;
        stroke-width:0.2;
        stroke-opacity: 1.0
    }
    path.concave {
        stroke: #000000;
        stroke-dasharray: 1.00,0.50,0.20,0.50;
        stroke-dashoffset: 0;
        stroke-width: 0.2;
        stroke-opacity: 1.0
    }
    path.freestyle {
        stroke: #000000;
        stroke-dasharray: none;
        stroke-dashoffset: 0;
        stroke-width: 0.2;
        stroke-opacity: 1.0
    }
    path.outer_background {
        stroke: #ffffff;
        stroke-opacity: 1.0;
        stroke-width: 0.5
    }
    path.inner_background {
        stroke: #ffffff;
        stroke-opacity: 1.0;
        stroke-width: 0.2
    }
    path.sticker {
        fill: #e5e5e5;
        stroke: none;
        fill-opacity: 1.0;
    }
    path.arrow {
        fill: #000;
    }
    text {
        font-style: normal;
        fill: #000000;
        fill-opacity: 1.0;
        stroke: none;
    }
    text, tspan {
        text-anchor:middle;
    }
    </style>
  <g
     id="g254"
     transform="translate(82.414648,-210.99046)">
    <text
       id="text212"
       style="font-style:normal;font-size:5px;text-anchor:middle;fill:#000000;fill-opacity:1;stroke:none"
       transform="translate(36.428573,285.99999)">
      <tspan
         id="tspan210"
         style="text-anchor:middle">[2] Island 2</tspan>
    </text>
    <path
       id="path214"
       d="M 14.999999,274.99999 10,272.11324 l 4e-6,-34.9704 4.999998,-5 z m 42.857147,-42.85714 4.999999,2.88675 -3e-6,34.97039 -5.000003,5 z"
       class="sticker"
       inkscape:connector-curvature="0"
       style="fill:#e5e5e5;fill-opacity:1;stroke:none;stroke-linecap:butt;stroke-linejoin:bevel;stroke-dasharray:none" />
    <path
       id="path216"
       d="m 29.285718,232.14284 -6e-6,42.85715 m -14.28571,-42.85715 -3e-6,42.85715"
       class="convex"
       inkscape:connector-curvature="0"
       style="fill:none;stroke:#000000;stroke-width:0.2;stroke-linecap:butt;stroke-linejoin:bevel;stroke-dasharray:0.5, 1;stroke-dashoffset:0;stroke-opacity:1" />
    <path
       id="path218"
       d="m 57.857139,274.99999 7e-6,-42.85714"
       class="concave"
       inkscape:connector-curvature="0"
       style="fill:none;stroke:#000000;stroke-width:0.2;stroke-linecap:butt;stroke-linejoin:bevel;stroke-dasharray:1, 0.5, 0.2, 0.5;stroke-dashoffset:0;stroke-opacity:1" />
    <path
       id="path220"
       d="m 62.857145,235.0296 -3e-6,34.97039 -5.000003,5 H 29.285712 14.999999 L 10,272.11324 l 4e-6,-34.9704 4.999998,-5 h 14.285716 l 28.571428,1e-5 z"
       class="outer"
       inkscape:connector-curvature="0"
       style="fill:none;stroke:#000000;stroke-width:0.30000001;stroke-linecap:butt;stroke-linejoin:bevel;stroke-dasharray:none;stroke-dashoffset:0;stroke-opacity:1" />
    <g
       id="g228">
      <path
         id="path222"
         d="M 0,0 1,1 0,0.25 -1,1 Z"
         class="arrow"
         transform="matrix(5,0,0,5,22.142855,274.99999)"
         inkscape:connector-curvature="0"
         style="fill:#000000;stroke-linecap:butt;stroke-linejoin:bevel;stroke-dasharray:none" />
      <text
         id="text226"
         style="font-style:normal;font-size:5px;text-anchor:middle;fill:#000000;fill-opacity:1;stroke:none"
         transform="translate(22.142855,281.49999)">
        <tspan
           id="tspan224"
           style="text-anchor:middle">1</tspan>
      </text>
    </g>
    <text
       id="text232"
       style="font-style:normal;font-size:4.5px;text-anchor:middle;fill:#000000;fill-opacity:1;stroke:none"
       transform="rotate(-90,133.83571,119.73571)">
      <tspan
         id="tspan230"
         style="text-anchor:middle">1:4</tspan>
    </text>
    <g
       id="g240">
      <path
         id="path234"
         d="M 0,0 1,1 0,0.25 -1,1 Z"
         class="arrow"
         transform="matrix(-5,-1e-6,1e-6,-5,43.571433,232.14285)"
         inkscape:connector-curvature="0"
         style="fill:#000000;stroke-linecap:butt;stroke-linejoin:bevel;stroke-dasharray:none" />
      <text
         id="text238"
         style="font-style:normal;font-size:5px;text-anchor:middle;fill:#000000;fill-opacity:1;stroke:none"
         transform="translate(43.571433,229.64285)">
        <tspan
           id="tspan236"
           style="text-anchor:middle">2</tspan>
      </text>
    </g>
    <g
       id="g248">
      <path
         id="path242"
         d="M 0,0 1,1 0,0.25 -1,1 Z"
         class="arrow"
         transform="matrix(-5,0,0,-5,22.142859,232.14284)"
         inkscape:connector-curvature="0"
         style="fill:#000000;stroke-linecap:butt;stroke-linejoin:bevel;stroke-dasharray:none" />
      <text
         id="text246"
         style="font-style:normal;font-size:5px;text-anchor:middle;fill:#000000;fill-opacity:1;stroke:none"
         transform="translate(22.142859,229.64285)">
        <tspan
           id="tspan244"
           style="text-anchor:middle">3</tspan>
      </text>
    </g>
    <text
       id="text252"
       style="font-style:normal;font-size:4.5px;text-anchor:middle;fill:#000000;fill-opacity:1;stroke:none"
       transform="rotate(90,-97.40714,156.16428)">
      <tspan
         id="tspan250"
         style="text-anchor:middle">1:7</tspan>
    </text>
  </g>
</svg>
