<?xml version='1.0' encoding='UTF-8' standalone='no'?>
    <svg xmlns='http://www.w3.org/2000/svg' xmlns:xlink='http://www.w3.org/1999/xlink' version='1.1'
    width='210.00mm' height='297.00mm' viewBox='0 0 210.00 297.00'>
<style type="text/css">
    path {
        fill: none;
        stroke-linecap: butt;
        stroke-linejoin: bevel;
        stroke-dasharray: none;
    }
    path.outer {
        stroke: #000000;
        stroke-dasharray: none;
        stroke-dashoffset: 0;
        stroke-width: 0.3;
        stroke-opacity: 1.0;
    }
    path.convex {
        stroke: #000000;
        stroke-dasharray: 0.50,1.00;
        stroke-dashoffset:0;
        stroke-width:0.2;
        stroke-opacity: 1.0
    }
    path.concave {
        stroke: #000000;
        stroke-dasharray: 1.00,0.50,0.20,0.50;
        stroke-dashoffset: 0;
        stroke-width: 0.2;
        stroke-opacity: 1.0
    }
    path.freestyle {
        stroke: #000000;
        stroke-dasharray: none;
        stroke-dashoffset: 0;
        stroke-width: 0.2;
        stroke-opacity: 1.0
    }
    path.outer_background {
        stroke: #ffffff;
        stroke-opacity: 1.0;
        stroke-width: 0.5
    }
    path.inner_background {
        stroke: #ffffff;
        stroke-opacity: 1.0;
        stroke-width: 0.2
    }
    path.sticker {
        fill: #e5e5e5;
        stroke: none;
        fill-opacity: 1.0;
    }
    path.arrow {
        fill: #000;
    }
    text {
        font-style: normal;
        fill: #000000;
        fill-opacity: 1.0;
        stroke: none;
    }
    text, tspan {
        text-anchor:middle;
    }
    </style>
<g>
<path class='sticker' d=' M 154.434258 87.018033 L 160.016427 85.544070 L 183.958897 109.661659 L 182.901392 115.693381 Z
M 182.901392 115.693381 L 184.375355 121.275550 L 160.257766 145.218035 L 154.226044 144.160500 Z
M 125.654818 144.056400 L 130.644264 146.961367 L 130.561190 169.759130 L 125.550712 172.627641 Z
M 68.408227 172.419427 L 63.418778 169.514483 L 63.501848 146.716705 L 68.512334 143.848186 Z
M 68.009650 281.802329 L 63.020201 278.897379 L 63.103268 256.099602 L 68.113757 253.231088 Z
M 11.473960 115.068724 L 10.000000 109.486541 L 34.117591 85.544085 L 40.149312 86.601606 Z
M 125.256235 253.439302 L 130.245680 256.344253 L 130.162613 279.142030 L 125.152128 282.010543 Z
M 39.941093 143.744057 L 34.358909 145.218035 L 10.416441 121.100446 L 11.473960 115.068724 Z
M 125.152128 282.010543 L 122.247176 286.999991 L 72.991395 286.820515 L 68.009650 281.802329 Z '/>
<path class='convex' d=' M 125.550712 172.627641 L 125.654818 144.056400
M 125.550712 172.627641 L 68.408227 172.419427
M 68.512334 143.848186 L 68.408227 172.419427
M 125.152128 282.010543 L 125.256235 253.439302
M 68.009650 281.802329 L 125.152128 282.010543
M 68.113757 253.231088 L 68.009650 281.802329
M 11.473960 115.068724 L 39.941093 143.744057
M 125.256235 253.439302 L 68.113757 253.231088
M 68.720551 86.705720 L 68.512334 143.848186
M 182.901392 115.693381 L 154.434258 87.018033
M 125.863032 86.913934 L 125.654818 144.056400
M 154.226044 144.160500 L 182.901392 115.693381
M 125.403481 213.033473 L 68.260992 212.825252
M 40.149312 86.601606 L 11.473960 115.068724
M 125.654818 144.056400 L 68.512334 143.848186 '/>
<path class='outer' d=' M 125.654818 144.056400 L 130.644264 146.961367 L 130.561190 169.759130 L 125.550712 172.627641 L 125.403481 213.033473 L 125.256235 253.439302 L 130.245680 256.344253 L 130.162613 279.142030 L 125.152128 282.010543 L 122.247176 286.999991 L 72.991395 286.820515 L 68.009650 281.802329 L 63.020201 278.897379 L 63.103268 256.099602 L 68.113757 253.231088 L 68.260992 212.825252 L 68.408227 172.419427 L 63.418778 169.514483 L 63.501848 146.716705 L 68.512334 143.848186 L 39.941093 143.744057 L 34.358909 145.218035 L 10.416441 121.100446 L 11.473960 115.068724 L 10.000000 109.486541 L 34.117591 85.544085 L 40.149312 86.601606 L 68.720551 86.705720 L 125.863032 86.913934 L 154.434258 87.018033 L 160.016427 85.544070 L 183.958897 109.661659 L 182.901392 115.693381 L 184.375355 121.275550 L 160.257766 145.218035 L 154.226044 144.160500 Z '/>
</g>
</svg>
