# Created by FreeCAD <http://www.freecadweb.org>
v 40.000000 40.000000 20.000000
v 40.000000 40.000000 0.000000
v 0.000000 40.000000 0.000000
v 0.000000 40.000000 20.000000
v 20.000000 40.000000 40.000000
v 40.000000 0.000000 20.000000
v 40.000000 0.000000 0.000000
v 20.000000 0.000000 40.000000
v 0.000000 0.000000 20.000000
v 0.000000 0.000000 0.000000
vn 0.000000 1.000000 0.000000
vn 0.000000 1.000000 0.000000
vn 0.000000 1.000000 0.000000
vn 1.000000 -0.000000 0.000000
vn 1.000000 0.000000 0.000000
vn 0.000000 -1.000000 0.000000
vn -0.000000 -1.000000 0.000000
vn 0.000000 -1.000000 0.000000
vn -1.000000 0.000000 0.000000
vn -1.000000 0.000000 0.000000
vn 0.000000 0.000000 -1.000000
vn 0.000000 0.000000 -1.000000
vn -0.707107 0.000000 0.707107
vn -0.707107 0.000000 0.707107
vn 0.707107 0.000000 0.707107
vn 0.707107 0.000000 0.707107
f 1//1 2//1 3//1
f 1//2 3//2 4//2
f 5//3 1//3 4//3
f 6//4 2//4 1//4
f 6//5 7//5 2//5
f 6//6 8//6 9//6
f 6//7 9//7 10//7
f 7//8 6//8 10//8
f 10//9 4//9 3//9
f 10//10 9//10 4//10
f 3//11 2//11 7//11
f 3//12 7//12 10//12
f 8//13 5//13 4//13
f 9//14 8//14 4//14
f 5//15 8//15 6//15
f 1//16 5//16 6//16
