<?xml version='1.0' encoding='UTF-8' standalone='no'?>
    <svg xmlns='http://www.w3.org/2000/svg' xmlns:xlink='http://www.w3.org/1999/xlink' version='1.1'
    width='210.00mm' height='297.00mm' viewBox='0 0 210.00 297.00'>
<style type="text/css">
    path {
        fill: none;
        stroke-linecap: butt;
        stroke-linejoin: bevel;
        stroke-dasharray: none;
    }
    path.outer {
        stroke: #000000;
        stroke-dasharray: none;
        stroke-dashoffset: 0;
        stroke-width: 0.3;
        stroke-opacity: 1.0;
    }
    path.convex {
        stroke: #000000;
        stroke-dasharray: 0.50,1.00;
        stroke-dashoffset:0;
        stroke-width:0.2;
        stroke-opacity: 1.0
    }
    path.concave {
        stroke: #000000;
        stroke-dasharray: 1.00,0.50,0.20,0.50;
        stroke-dashoffset: 0;
        stroke-width: 0.2;
        stroke-opacity: 1.0
    }
    path.freestyle {
        stroke: #000000;
        stroke-dasharray: none;
        stroke-dashoffset: 0;
        stroke-width: 0.2;
        stroke-opacity: 1.0
    }
    path.outer_background {
        stroke: #ffffff;
        stroke-opacity: 1.0;
        stroke-width: 0.5
    }
    path.inner_background {
        stroke: #ffffff;
        stroke-opacity: 1.0;
        stroke-width: 0.2
    }
    path.sticker {
        fill: #e5e5e5;
        stroke: none;
        fill-opacity: 1.0;
    }
    path.arrow {
        fill: #000;
    }
    text {
        font-style: normal;
        fill: #000000;
        fill-opacity: 1.0;
        stroke: none;
    }
    text, tspan {
        text-anchor:middle;
    }
    </style>
<g>
<path class='sticker' d=' M 39.144261 103.212913 L 33.392970 102.706989 L 19.908788 73.754137 L 23.222582 69.026342 Z
M 117.952580 272.427877 L 117.446648 278.179159 L 98.506818 286.999991 L 93.779022 283.686182 Z
M 24.572128 198.250255 L 18.820828 197.744330 L 10.000000 178.804493 L 13.313795 174.076697 Z
M 95.435912 224.080732 L 102.079386 226.502350 L 121.266367 267.700067 L 117.952580 272.427877 Z
M 58.347119 270.770973 L 52.595830 270.265019 L 43.774998 251.325196 L 47.088785 246.597400 Z
M 71.569705 46.509674 L 77.321002 47.015613 L 90.805182 75.968465 L 87.491388 80.696261 Z
M 50.402595 127.386486 L 44.651302 126.880547 L 35.830468 107.940724 L 39.144261 103.212913 Z
M 72.919251 175.733602 L 78.670541 176.239526 L 97.857514 217.437258 L 95.435912 224.080732 Z
M 11.964252 44.852784 L 12.470176 39.101487 L 53.667894 19.914499 L 60.311375 22.336116 Z '/>
<path class='convex' d=' M 23.222582 69.026342 L 39.144261 103.212913
M 23.222582 69.026342 L 71.569705 46.509674
M 87.491388 80.696261 L 71.569705 46.509674
M 60.311375 22.336116 L 11.964252 44.852784
M 13.313795 174.076697 L 24.572128 198.250255
M 72.919251 175.733602 L 24.572128 198.250255
M 39.144261 103.212913 L 50.402595 127.386486
M 50.402595 127.386486 L 98.749714 104.869818
M 47.088785 246.597400 L 95.435912 224.080732
M 95.435912 224.080732 L 72.919251 175.733602
M 93.779022 283.686182 L 117.952580 272.427877
M 39.144261 103.212913 L 87.491388 80.696261
M 117.952580 272.427877 L 95.435912 224.080732
M 50.402595 127.386486 L 72.919251 175.733602
M 47.088785 246.597400 L 58.347119 270.770973 '/>
<path class='outer' d=' M 44.651302 126.880547 L 35.830468 107.940724 L 39.144261 103.212913 L 33.392970 102.706989 L 19.908788 73.754137 L 23.222582 69.026342 L 11.964252 44.852784 L 12.470176 39.101487 L 53.667894 19.914499 L 60.311375 22.336116 L 71.569705 46.509674 L 77.321002 47.015613 L 90.805182 75.968465 L 87.491388 80.696261 L 98.749714 104.869818 L 121.266374 153.216934 L 72.919251 175.733602 L 78.670541 176.239526 L 97.857514 217.437258 L 95.435912 224.080732 L 102.079386 226.502350 L 121.266367 267.700067 L 117.952580 272.427877 L 117.446648 278.179159 L 98.506818 286.999991 L 93.779022 283.686182 L 58.347119 270.770973 L 52.595830 270.265019 L 43.774998 251.325196 L 47.088785 246.597400 L 24.572128 198.250255 L 18.820828 197.744330 L 10.000000 178.804493 L 13.313795 174.076697 L 26.229030 138.644805 L 50.402595 127.386486 Z '/>
</g>
</svg>
