<?xml version="1.0" encoding="UTF-8" standalone="no"?>
<svg
   xmlns:dc="http://purl.org/dc/elements/1.1/"
   xmlns:cc="http://creativecommons.org/ns#"
   xmlns:rdf="http://www.w3.org/1999/02/22-rdf-syntax-ns#"
   xmlns:svg="http://www.w3.org/2000/svg"
   xmlns="http://www.w3.org/2000/svg"
   xmlns:sodipodi="http://sodipodi.sourceforge.net/DTD/sodipodi-0.dtd"
   xmlns:inkscape="http://www.inkscape.org/namespaces/inkscape"
   version="1.1"
   width="210.00mm"
   height="297.00mm"
   viewBox="0 0 210.00 297.00"
   id="svg56"
   sodipodi:docname="A_dificil-hard.svg"
   inkscape:version="0.92.1 r15371">
  <metadata
     id="metadata62">
    <rdf:RDF>
      <cc:Work
         rdf:about="">
        <dc:format>image/svg+xml</dc:format>
        <dc:type
           rdf:resource="http://purl.org/dc/dcmitype/StillImage" />
      </cc:Work>
    </rdf:RDF>
  </metadata>
  <defs
     id="defs60" />
  <sodipodi:namedview
     pagecolor="#ffffff"
     bordercolor="#666666"
     borderopacity="1"
     objecttolerance="10"
     gridtolerance="10"
     guidetolerance="10"
     inkscape:pageopacity="0"
     inkscape:pageshadow="2"
     inkscape:window-width="1024"
     inkscape:window-height="552"
     id="namedview58"
     showgrid="false"
     inkscape:zoom="0.2102413"
     inkscape:cx="396.85039"
     inkscape:cy="561.25984"
     inkscape:window-x="0"
     inkscape:window-y="29"
     inkscape:window-maximized="1"
     inkscape:current-layer="g54" />
  <style
     type="text/css"
     id="style2">
    path {
        fill: none;
        stroke-linecap: butt;
        stroke-linejoin: bevel;
        stroke-dasharray: none;
    }
    path.outer {
        stroke: #000000;
        stroke-dasharray: none;
        stroke-dashoffset: 0;
        stroke-width: 0.3;
        stroke-opacity: 1.0;
    }
    path.convex {
        stroke: #000000;
        stroke-dasharray: 0.50,1.00;
        stroke-dashoffset:0;
        stroke-width:0.2;
        stroke-opacity: 1.0
    }
    path.concave {
        stroke: #000000;
        stroke-dasharray: 1.00,0.50,0.20,0.50;
        stroke-dashoffset: 0;
        stroke-width: 0.2;
        stroke-opacity: 1.0
    }
    path.freestyle {
        stroke: #000000;
        stroke-dasharray: none;
        stroke-dashoffset: 0;
        stroke-width: 0.2;
        stroke-opacity: 1.0
    }
    path.outer_background {
        stroke: #ffffff;
        stroke-opacity: 1.0;
        stroke-width: 0.5
    }
    path.inner_background {
        stroke: #ffffff;
        stroke-opacity: 1.0;
        stroke-width: 0.2
    }
    path.sticker {
        fill: #e5e5e5;
        stroke: none;
        fill-opacity: 1.0;
    }
    path.arrow {
        fill: #000;
    }
    text {
        font-style: normal;
        fill: #000000;
        fill-opacity: 1.0;
        stroke: none;
    }
    text, tspan {
        text-anchor:middle;
    }
    </style>
  <g
     id="g54"
     transform="translate(1.2584746,-8.8093221)">
    <g
       id="g42"
       transform="matrix(1.0663695,0,0,1.0663695,-1.5806631,-53.368217)">
      <path
         class="sticker"
         d="M 6.922395,253.25991 5,247.81587 l 17.965156,-20.99668 6.21822,0.42333 z m 91.399204,-34.17119 1.59277,5.54945 -6.674737,6.9153 -5.602344,-1.39533 z m -65.261172,1.1553 3.34725,-10.66752 12.41903,-12.86666 5.602352,1.39535 z m 53.421574,-55.34706 5.549445,-1.59276 6.915316,6.67473 -1.395359,5.60234 z m 43.892539,20.98354 1.59277,5.54945 -6.67474,6.91531 -5.60233,-1.39536 z m 60.49845,64.12304 -1.39535,5.60236 -24.02574,6.89572 -4.15411,-4.0096 z m -120.391841,17.10005 0.643163,6.19933 -20.347658,18.69707 -5.508687,-1.72852 z m 70.962811,-70.53878 10.66752,3.34726 12.86663,12.41903 -1.39535,5.60235 z m 17.64954,-62.5911 4.00961,-4.1541 24.25472,6.04104 1.59277,5.54946 z m -38.24799,128.23737 -10.66752,-3.34726 -12.866653,-12.41902 1.395353,-5.60234 z m -1.15527,-65.26118 5.54944,-1.59276 6.91531,6.67474 -1.39536,5.60234 z m -54.576866,-9.91411 1.592763,5.54944 -6.674729,6.91532 -5.602349,-1.39536 z m -10.684315,11.0694 5.549449,-1.59277 6.915305,6.67474 -1.395348,5.60234 z m 134.521541,-56.69508 1.92239,5.44405 -17.96514,20.99666 -6.21823,-0.42334 z m -91.784288,12.41745 3.347248,-10.66752 12.41903,-12.86665 5.60235,1.39535 z m -92.166289,-9.1611 1.395351,-5.60236 24.025739,-6.89569 4.154103,4.00957 z m 104.390977,85.10658 -5.54944,1.59276 -6.915321,-6.67473 1.39536,-5.60235 z m -11.839597,-54.19177 -1.592771,-5.54944 6.674748,-6.91532 5.60234,1.39536 z m -60.771916,85.11503 -4.009588,4.15412 -24.254743,-6.04105 -1.592761,-5.54946 z m 88.612373,-133.12989 -0.64316,-6.19933 20.34765,-18.69706 5.50868,1.72851 z"
         id="path34"
         inkscape:connector-curvature="0"
         style="fill:#e5e5e5;fill-opacity:1;stroke:none;stroke-linecap:butt;stroke-linejoin:bevel;stroke-dasharray:none" />
      <path
         class="convex"
         d="M 130.75963,207.63422 119.69024,196.9499 m 11.06939,10.68432 -21.36863,22.13882 M 98.321599,219.08872 109.391,229.77304 m 51.90679,28.71898 29.5752,-8.48848 m -82.63727,-85.49167 -10.684317,11.0694 m 22.138837,21.36863 10.6843,-11.0694 m 28.71896,-51.90679 -29.43767,8.44902 m -0.0515,-0.0497 -21.36864,22.13882 m 23.29411,86.62979 -22.13883,-21.36862 m 20.98354,-43.89254 21.36864,-22.13883 m 9.55461,94.75035 -29.71831,-7.4018 m -23.34376,-86.57835 22.13882,21.36863 m 30.92325,72.61152 -8.44899,-29.43772 M 97.551403,175.58127 86.482001,164.89696 m 1.155287,65.26118 -21.368638,22.13881 m 21.368638,-22.13881 10.684311,-11.06942 m -43.89254,-20.98353 10.684315,-11.0694 m -20.983539,43.89254 21.36863,-22.13883 m 0,0 -11.069406,-10.68431 M 43.024221,165.6157 34.575216,136.17798 m 51.906785,28.71898 -21.368627,22.13883 M 87.637288,230.15814 65.498465,208.7895 m -28.718978,51.9068 7.401824,-29.71829 m -37.258916,22.2819 29.857092,7.43639 M 64.293523,143.57979 34.575216,136.17798 m 29.767973,7.35036 22.138812,21.36862 M 36.779487,260.6963 66.217178,252.24727 M 188.9506,141.41011 l -29.8571,-7.4364 m -28.33387,73.66051 22.13882,21.36864 m 6.19505,-95.02915 -7.40179,29.71828 m -108.717151,1.97517 22.138815,21.36863 M 34.575216,136.17798 5.000023,144.66646"
         id="path36"
         inkscape:connector-curvature="0"
         style="fill:none;stroke:#000000;stroke-width:0.2;stroke-linecap:butt;stroke-linejoin:bevel;stroke-dasharray:0.5, 1;stroke-dashoffset:0;stroke-opacity:1" />
      <path
         class="concave"
         d="m 98.70669,240.84246 22.13882,21.36862 M 118.53494,131.68874 97.166312,153.82756 M 45.267967,290.27147 70.481149,267.10359 m -16.05209,-68.9984 -21.368632,22.13883 M 150.60503,104.39853 125.39186,127.56641 M 29.183376,227.24252 6.922395,253.25991 M 166.68962,167.42748 188.9506,141.41011 m -25.36784,76.52334 -22.1388,-21.36864"
         id="path38"
         inkscape:connector-curvature="0"
         style="fill:none;stroke:#000000;stroke-width:0.2;stroke-linecap:butt;stroke-linejoin:bevel;stroke-dasharray:1, 0.5, 0.2, 0.5;stroke-dashoffset:0;stroke-opacity:1" />
      <path
         class="outer"
         d="m 130.37454,185.8805 1.59277,5.54945 -6.67474,6.91531 -5.60233,-1.39536 5.54944,-1.59276 6.91531,6.67474 -1.39536,5.60234 10.68433,-11.06941 z m -33.208228,-32.05294 -10.684311,11.0694 5.549445,-1.59276 6.915316,6.67473 -1.395359,5.60234 -1.592771,-5.54944 6.674748,-6.91532 5.60234,1.39536 z m -26.042,119.47536 -20.347658,18.69707 -5.508687,-1.72852 -8.48848,-29.57517 -4.009588,4.15412 L 8.515156,258.80937 6.922395,253.25991 5,247.81587 l 17.965156,-20.99668 6.21822,0.42333 14.997935,3.73549 -0.05148,-0.0497 -11.069408,-10.68431 3.34725,-10.66752 12.41903,-12.86666 5.602352,1.39535 -22.138817,-21.36864 10.684317,-11.06939 0.04966,-0.0515 -14.856354,4.26397 -23.167844,-25.21321 1.395351,-5.60236 24.025739,-6.89569 4.154103,4.00957 7.436359,-29.8571 26.017424,22.26094 -3.735476,14.99797 0.04967,-0.0515 10.684304,-11.06942 22.138819,21.36864 3.34725,-10.66752 12.41903,-12.86665 5.60235,1.39535 11.06942,10.68431 0.0515,0.0497 -4.26397,-14.85632 -0.64316,-6.19933 20.34765,-18.69706 5.50868,1.72851 8.48847,29.57518 4.00961,-4.1541 24.25472,6.04104 1.59277,5.54946 1.92239,5.44405 -17.96514,20.99666 -6.21823,-0.42334 -14.99791,-3.73549 0.0515,0.0497 11.06938,10.68433 -21.3686,22.13881 10.66752,3.34726 12.86663,12.41903 -1.39535,5.60235 -10.68431,11.06941 -0.0496,0.0514 14.85635,-4.26396 23.16784,25.2132 -1.39535,5.60236 -24.02574,6.89572 -4.15411,-4.0096 -7.43635,29.85708 -26.01742,-22.2609 3.73546,-14.99798 -0.0496,0.0514 -10.68432,11.06942 -10.66752,-3.34726 -12.866655,-12.41902 1.395353,-5.60234 -21.368638,22.1388 -11.069402,-10.68431 -0.05147,-0.0497 4.263971,14.85632 z m 28.790057,-48.66475 -6.674737,6.9153 -5.602344,-1.39533 11.069402,10.68432 10.68431,-11.06942 -5.54944,1.59276 -6.915321,-6.67473 1.39536,-5.60235 z m -33.208232,-32.05294 -6.674729,6.91532 -5.602349,-1.39536 5.549449,-1.59277 6.915305,6.67474 -1.395348,5.60234 10.684315,-11.06941 -11.069406,-10.6843 z"
         id="path40"
         inkscape:connector-curvature="0"
         style="fill:none;stroke:#000000;stroke-width:0.30000001;stroke-linecap:butt;stroke-linejoin:bevel;stroke-dasharray:none;stroke-dashoffset:0;stroke-opacity:1" />
    </g>
  </g>
</svg>
